<svg width="1078" height="819" viewBox="0 0 1078 819" fill="none" xmlns="http://www.w3.org/2000/svg">
<g clip-path="url(#clip0)">
<path d="M924.636 574.285L927.853 574.421C928.072 569.221 944.267 556.791 954.322 551.74C961.298 548.236 966.688 544.445 970.799 540.149C977.346 533.31 980.181 525.573 979.225 517.153C977.242 499.686 991.333 477.712 991.475 477.492L988.774 475.74C988.166 476.676 973.912 498.894 976.025 517.517C977.43 529.895 969.642 540.441 952.877 548.863C944.977 552.831 924.976 566.22 924.636 574.285Z" fill="#D4D5E0"/>
<path d="M972.864 432.736C986.284 410.276 1012.44 401.198 1031.29 412.46C1050.14 423.721 1054.54 451.057 1041.12 473.516C1028.09 495.323 1003.05 504.513 984.354 494.721C983.25 497.156 982.872 499.859 983.266 502.503C984.209 506.962 974.655 497.358 974.655 497.358C976.664 495.821 978.412 493.969 979.831 491.875C963.433 479.655 960.153 454.009 972.864 432.736Z" fill="#FF587C"/>
<path opacity="0.2" d="M1020.79 483.912C1028.87 477.258 1031.71 467.218 1027.46 460.96C1027.69 461.194 1027.91 461.439 1028.13 461.697C1033.21 467.869 1030.49 478.501 1022.05 485.443C1013.86 492.185 1003.29 492.969 998.036 487.359C997.484 487.945 1012.61 490.641 1020.79 483.912Z" fill="white"/>
</g>
<defs>
<clipPath id="clip0">
<rect width="1077.87" height="818.139" fill="white"/>
</clipPath>
</defs>
</svg>
