<svg width="1078" height="819" viewBox="0 0 1078 819" fill="none" xmlns="http://www.w3.org/2000/svg">
<g clip-path="url(#clip0)">
<path d="M908.139 538.05L905.351 536.438C907.957 531.932 900.963 512.753 895.189 503.094C891.184 496.394 888.671 490.302 887.507 484.471C885.654 475.187 887.414 467.137 892.739 460.546C903.787 446.871 903.691 420.768 903.689 420.506L906.909 420.477C906.919 421.594 907.022 447.991 895.244 462.57C887.415 472.26 888.327 485.339 897.953 501.442C902.49 509.031 912.18 531.062 908.139 538.05Z" fill="#D4D5E0"/>
<path d="M943.412 392.73C944.143 366.577 926.944 344.878 904.997 344.265C883.05 343.652 864.667 364.356 863.936 390.509C863.226 415.902 879.42 437.093 900.45 438.865C900.075 441.512 898.944 443.995 897.192 446.015C894.003 449.271 907.22 446.296 907.22 446.296C906.349 443.92 905.868 441.42 905.795 438.891C926.189 437.381 942.72 417.502 943.412 392.73Z" fill="#FF587C"/>
<path opacity="0.2" d="M875.509 410.19C872.259 400.238 875.256 390.245 882.198 387.245C881.877 387.318 881.558 387.404 881.241 387.508C873.642 389.989 870.231 400.42 873.623 410.806C876.916 420.89 885.411 427.222 892.857 425.311C893.009 426.101 878.797 420.257 875.509 410.19Z" fill="white"/>
</g>
<defs>
<clipPath id="clip0">
<rect width="1077.87" height="818.139" fill="white"/>
</clipPath>
</defs>
</svg>
