<svg width="1078" height="819" viewBox="0 0 1078 819" fill="none" xmlns="http://www.w3.org/2000/svg">
<g clip-path="url(#clip0)">
<path d="M772.63 673.325L770.586 670.836C774.609 667.533 774.8 647.119 772.788 636.048C771.391 628.367 771.179 621.781 772.138 615.913C773.665 606.569 778.141 599.651 785.443 595.351C800.59 586.43 809.672 561.957 809.762 561.711L812.787 562.815C812.404 563.864 803.226 588.614 787.077 598.126C776.342 604.448 772.601 617.013 775.956 635.472C777.537 644.17 778.869 668.202 772.63 673.325Z" fill="#D4D5E0"/>
<path d="M856.712 549.662C866.585 525.433 858.106 499.075 837.774 490.79C817.441 482.505 792.955 495.431 783.083 519.659C773.497 543.184 781.213 568.714 800.28 577.762C798.998 580.109 797.067 582.036 794.717 583.311C790.588 585.24 804.007 587.097 804.007 587.097C804.026 584.567 804.454 582.057 805.275 579.664C824.899 585.416 847.361 572.611 856.712 549.662Z" fill="#FF587C"/>
<path opacity="0.2" d="M787.003 542.152C787.457 531.692 793.774 523.389 801.328 523.019C801.002 522.975 800.672 522.944 800.339 522.929C792.352 522.583 785.494 531.151 785.021 542.066C784.561 552.664 790.29 561.577 797.933 562.404C797.797 563.197 786.544 552.732 787.003 542.152Z" fill="white"/>
</g>
<defs>
<clipPath id="clip0">
<rect width="1077.87" height="818.139" fill="white"/>
</clipPath>
</defs>
</svg>
