<svg width="1078" height="819" viewBox="0 0 1078 819" fill="none" xmlns="http://www.w3.org/2000/svg">
<g clip-path="url(#clip0)">
<path opacity="0.5" d="M850.598 805.794C866.392 805.794 879.196 804.497 879.196 802.897C879.196 801.297 866.392 800 850.598 800C834.804 800 822 801.297 822 802.897C822 804.497 834.804 805.794 850.598 805.794Z" fill="#F31919"/>
</g>
<defs>
<clipPath id="clip0">
<rect width="1077.87" height="818.139" fill="white"/>
</clipPath>
</defs>
</svg>
