<svg width="1078" height="819" viewBox="0 0 1078 819" fill="none" xmlns="http://www.w3.org/2000/svg">
<g clip-path="url(#clip0)">
<path opacity="0.5" d="M704.598 775.794C720.392 775.794 733.196 774.497 733.196 772.897C733.196 771.297 720.392 770 704.598 770C688.804 770 676 771.297 676 772.897C676 774.497 688.804 775.794 704.598 775.794Z" fill="#F31919"/>
</g>
<defs>
<clipPath id="clip0">
<rect width="1077.87" height="818.139" fill="white"/>
</clipPath>
</defs>
</svg>
