<svg width="1078" height="819" viewBox="0 0 1078 819" fill="none" xmlns="http://www.w3.org/2000/svg">
<g clip-path="url(#clip0)">
<path opacity="0.5" d="M660.598 796.794C676.392 796.794 689.196 795.497 689.196 793.897C689.196 792.297 676.392 791 660.598 791C644.804 791 632 792.297 632 793.897C632 795.497 644.804 796.794 660.598 796.794Z" fill="#F31919"/>
</g>
<defs>
<clipPath id="clip0">
<rect width="1077.87" height="818.139" fill="white"/>
</clipPath>
</defs>
</svg>
