<svg width="1078" height="819" viewBox="0 0 1078 819" fill="none" xmlns="http://www.w3.org/2000/svg">
<g clip-path="url(#clip0)">
<path d="M655.792 130.569V163.334H660.921L659.781 126.865L655.792 130.569Z" fill="#53425A"/>
<path d="M676.879 222.307L649.527 224.589V157.921H668.331C667.665 159.339 667.374 161.733 667.365 164.775C667.487 170.275 667.978 175.761 668.836 181.195C671.502 199.871 676.879 222.307 676.879 222.307Z" fill="#FF587C"/>
<path opacity="0.5" d="M668.836 181.195C662.246 186.716 654.604 194.306 649.527 199.529V178.032C654.921 172.665 662.075 167.921 667.366 164.776C667.487 170.275 667.978 175.761 668.836 181.195Z" fill="white"/>
</g>
<defs>
<clipPath id="clip0">
<rect width="1077.87" height="818.139" fill="white"/>
</clipPath>
</defs>
</svg>
