<svg width="1078" height="819" viewBox="0 0 1078 819" fill="none" xmlns="http://www.w3.org/2000/svg">
<g clip-path="url(#clip0)">
<path d="M536.474 420.875L523.745 447.938C523.745 447.938 521.87 453.017 520.66 453.959C519.46 454.902 514.103 470.973 514.103 470.973L500.442 492.026V492.037L499.51 493.473L494.153 491.994L490.403 477.959L490.628 473.888L490.66 473.373C490.66 473.373 499.103 464.545 500.978 463.87C500.978 463.87 502.446 464.041 505.264 457.195C508.081 450.338 510.621 448.87 510.621 448.87L512.088 443.91L527.902 418.732C527.902 418.732 541.156 399.725 544.766 408.157C548.388 416.589 536.474 420.875 536.474 420.875Z" fill="#FFD2C6"/>
<path d="M483.589 613.105C483.55 613.565 483.403 614.009 483.161 614.402C481.693 616.544 473.39 660.333 473.39 660.333C474.054 663.29 472.19 669.182 470.979 671.861C469.768 674.539 467.09 688.467 467.09 688.467C467.09 688.467 466.426 718.467 464.69 723.149C462.943 727.831 465.247 737.88 465.247 737.88C465.076 742.498 467.851 747.384 469.5 749.869C469.618 750.03 469.726 750.191 469.822 750.33C470.357 751.102 470.711 751.541 470.711 751.541C471.166 752.436 471.805 753.224 472.586 753.855C472.704 753.951 472.833 754.048 472.961 754.144C475.239 755.672 477.788 756.748 480.472 757.316C480.557 757.337 480.643 757.348 480.729 757.369C481.8 757.605 482.497 757.701 482.497 757.701L483.161 761.323L476.068 762.79L462.547 763.723C462.547 763.723 446.605 764.933 450.226 757.83C450.477 757.345 450.695 756.844 450.88 756.33H450.89C451.019 755.987 451.147 755.634 451.255 755.269C453.43 748.444 451.962 740.152 451.962 740.152L448.876 715.917C443.798 693.417 452.883 668.368 452.883 668.368C452.883 668.368 452.09 666.364 453.837 661.275C455.583 656.186 453.837 645.076 453.837 645.076C453.837 645.076 452.904 630.74 451.694 623.648C451.218 620.666 451.057 617.642 451.212 614.627C451.27 612.858 451.431 611.094 451.694 609.345L482.229 605.295C482.229 605.295 483.954 610.277 483.589 613.105Z" fill="#FFD2C6"/>
<path opacity="0.1" d="M483.161 761.323L476.068 762.79L462.547 763.723C462.547 763.723 446.605 764.933 450.226 757.83C450.477 757.345 450.695 756.844 450.88 756.33H450.89C451.019 755.987 451.147 755.633 451.255 755.269C454.019 755.357 456.75 755.907 459.333 756.898C463.876 758.644 467.293 754.08 467.293 754.08L469.5 749.869L469.822 749.259C470.358 750.03 470.711 750.469 470.711 750.469C471.24 751.506 472.012 752.399 472.961 753.073L472.586 753.855L470.443 758.366C470.443 758.366 473.186 758.644 476.936 759.244C477.66 759.44 478.432 759.349 479.091 758.99C479.75 758.63 480.244 758.031 480.472 757.316C480.557 757.337 480.643 757.348 480.729 757.369C481.8 757.605 482.496 757.701 482.496 757.701L483.161 761.323Z" fill="black"/>
<path d="M489.728 764.665C489.193 767.076 474.257 767.815 474.257 767.815C474.257 767.815 465.954 767.012 463.618 768.951C461.272 770.89 454.436 770.43 454.169 770.43C453.901 770.43 450.29 770.29 448.876 763.808C447.505 757.487 450.719 756.383 450.879 756.33H450.89C453.779 756.37 456.639 756.925 459.333 757.969C463.875 759.716 467.293 755.151 467.293 755.151L469.822 750.33C470.357 751.101 470.711 751.541 470.711 751.541C471.24 752.577 472.012 753.47 472.961 754.144L470.443 759.437C470.443 759.437 473.186 759.716 476.936 760.316C479.936 760.798 480.589 758.355 480.729 757.369C480.747 757.234 480.758 757.098 480.761 756.962C480.761 756.962 483.096 757.637 485.978 758.441C487.268 758.822 488.368 759.673 489.062 760.825C489.756 761.977 489.994 763.347 489.728 764.665Z" fill="#626696"/>
<path d="M517.853 645.022C517.499 647.165 517.135 652.704 517.135 652.704C518.388 657.343 515.174 668.368 515.174 668.368L513.567 674.668C514.285 682.703 509.153 702.342 509.153 702.342C509.153 702.342 505.714 720.556 503.924 728.42C502.864 732.789 503.19 737.38 504.857 741.555C504.942 741.77 504.996 741.877 504.996 741.877C505.028 742.027 505.06 742.166 505.103 742.316C505.156 742.53 505.22 742.741 505.296 742.948C505.694 744.044 506.289 745.057 507.053 745.937C507.347 746.292 507.669 746.621 508.017 746.923C508.039 746.944 508.049 746.966 508.071 746.977C509.749 748.467 511.674 749.652 513.76 750.48H513.771L513.781 750.491C514.092 750.619 514.392 750.737 514.681 750.844C515.61 751.196 516.558 751.493 517.52 751.734H517.531C517.735 751.787 517.853 751.809 517.853 751.809L517.135 756.019L507.674 753.598L495 749.484L488.764 745.916C488.764 745.916 488.828 745.573 488.957 744.92C488.968 744.887 488.968 744.845 488.979 744.812C489.032 744.534 489.086 744.202 489.161 743.827C490.136 738.298 492.557 722.838 491.346 711.449C489.836 697.349 495.707 677.882 497.142 673.243C497.992 670.591 498.355 667.807 498.214 665.025C495.889 661.629 495.353 648.065 495.353 648.065C495.353 648.065 491.068 639.312 487.521 630.023C486.351 626.99 485.497 623.845 484.972 620.637C484.56 618.376 484.387 616.078 484.457 613.78C484.457 613.78 513.213 587.531 516.374 612.945C516.481 613.802 516.578 614.627 516.674 615.43C519.46 638.669 518.196 642.954 517.853 645.022Z" fill="#FFD2C6"/>
<path opacity="0.1" d="M517.853 751.809L517.135 756.019L507.674 753.598L495 749.484L488.764 745.916C488.764 745.916 488.828 745.573 488.957 744.919C488.968 744.887 488.968 744.844 488.979 744.812C489.032 744.534 489.086 744.202 489.161 743.827L490.05 743.741L490.125 743.73C491.924 743.559 493.739 743.805 495.428 744.448C497.496 745.219 500.196 746.109 500.753 745.734C501.709 745.322 502.747 745.139 503.785 745.198L505.103 742.316L505.296 741.877C505.694 742.972 506.289 743.985 507.053 744.866C507.365 745.238 507.705 745.586 508.071 745.905L508.017 746.923L507.942 748.369C509.359 749.271 510.89 749.978 512.496 750.469C512.91 750.575 513.344 750.579 513.76 750.48H513.771L513.781 750.491C514.092 750.619 514.392 750.737 514.681 750.844C515.61 751.196 516.558 751.493 517.521 751.734H517.531C517.735 751.787 517.853 751.809 517.853 751.809Z" fill="black"/>
<path d="M513.117 760.787C510.481 760.026 504.107 758.816 503.078 759.758C502.05 760.701 493.21 759.758 493.21 759.758C492.285 759.742 491.38 759.486 490.582 759.017C489.784 758.548 489.121 757.881 488.657 757.08C486.825 754.219 488.303 744.984 488.303 744.984L488.957 744.919L490.05 744.812L490.125 744.802C491.924 744.631 493.739 744.876 495.428 745.519C497.496 746.291 500.196 747.18 500.753 746.805C501.709 746.394 502.747 746.21 503.785 746.269L505.296 742.948C505.694 744.044 506.289 745.057 507.053 745.937C507.365 746.31 507.705 746.657 508.071 746.977L507.942 749.441C509.359 750.343 510.89 751.049 512.496 751.541C512.885 751.689 513.313 751.702 513.71 751.575C514.107 751.448 514.45 751.191 514.681 750.844C514.749 750.73 514.803 750.608 514.842 750.48L514.853 750.491C514.938 750.641 515.806 750.941 518.592 751.734H518.603C521.624 751.562 524.549 752.88 525.888 756.983C527.227 761.098 515.753 761.537 513.117 760.787Z" fill="#626696"/>
<path opacity="0.1" d="M483.589 613.105C483 613.277 482.464 613.437 481.961 613.598C480.673 613.988 479.354 614.267 478.018 614.434C469.565 615.623 455.636 614.905 451.212 614.627C451.27 612.858 451.431 611.094 451.694 609.345L482.229 605.295C482.229 605.295 483.954 610.277 483.589 613.105Z" fill="black"/>
<path d="M510.224 605.691C510.224 605.691 499.017 607.427 489.9 609.42C486.857 610.084 484.039 610.78 481.961 611.455C480.673 611.845 479.354 612.125 478.018 612.291C467.861 613.716 449.819 612.398 449.819 612.398C444.869 596.327 455.84 576.099 455.84 576.099C455.583 574.492 458.122 569.542 458.122 569.542L458.165 569.381L459.729 563.649H501.375L501.889 566.114L502.95 571.128L509.485 602.177L510.224 605.691Z" fill="#626696"/>
<path opacity="0.1" d="M516.674 615.43L516.428 615.537L511.553 617.701C506.281 620.134 490.489 620.594 484.971 620.637C484.559 618.376 484.387 616.078 484.457 613.78C484.457 613.78 513.213 587.531 516.374 612.944C516.481 613.802 516.578 614.627 516.674 615.43Z" fill="black"/>
<path d="M517.446 612.945L516.428 613.395L511.553 615.559C506.185 618.034 489.889 618.473 484.671 618.494C484.039 618.494 483.568 618.494 483.3 618.484C480.889 618.409 478.479 616.148 478.479 615.559C478.479 615.237 478.232 613.652 478.018 612.291C477.836 611.198 477.675 610.255 477.675 610.255C477.675 610.255 466.961 605.616 461.476 601.866C457.383 599.081 458.411 579.292 459.204 569.339C459.483 565.91 459.729 563.649 459.729 563.649L501.889 566.114L507.803 566.456L511.189 567.206L512.089 567.399C512.089 567.399 514.51 585.077 515.71 586.545C516.91 588.013 516.117 592.974 515.978 595.791C515.971 597.005 515.839 598.215 515.581 599.402C515.581 599.402 517.317 604.363 516.91 607.137C516.717 609.09 516.899 611.061 517.446 612.945Z" fill="#626696"/>
<path d="M472.318 466.147C481.86 466.147 489.594 458.412 489.594 448.87C489.594 439.329 481.86 431.594 472.318 431.594C462.777 431.594 455.042 439.329 455.042 448.87C455.042 458.412 462.777 466.147 472.318 466.147Z" fill="#FFD2C6"/>
<path d="M463.881 456.081C463.881 456.081 465.086 472.441 461.738 476.191C458.39 479.941 449.685 487.039 449.685 487.039L452.363 498.155L467.497 499.896L485.175 481.012L481.157 476.057C481.157 476.057 478.077 465.611 480.622 460.388C483.166 455.165 463.881 456.081 463.881 456.081Z" fill="#FFD2C6"/>
<path opacity="0.1" d="M500.442 492.026V492.037L499.51 493.473L494.153 491.994L490.403 477.959L490.629 473.888L491.732 472.302C491.732 472.302 497.625 472.441 497.368 477.798C497.121 482.512 499.8 490.237 500.442 492.026Z" fill="black"/>
<path opacity="0.1" d="M512.089 569.542C512.089 569.542 507.824 570.496 502.95 571.128C498 571.771 492.428 572.092 490.125 570.742C486.246 568.449 465.236 569.103 459.204 569.339C458.776 569.349 458.433 569.371 458.165 569.381L459.729 563.649H501.375L501.889 566.114L507.803 566.456L511.189 567.206C511.746 568.599 512.089 569.542 512.089 569.542Z" fill="black"/>
<path d="M490.666 473.379C490.666 473.379 496.559 473.513 496.291 478.87C496.023 484.227 499.505 493.467 499.505 493.467L498.166 496.548C498.166 496.548 496.291 504.047 497.764 505.922C499.237 507.797 504.594 507.797 501.514 523.199C501.514 523.199 500.848 534.716 502.453 538.466C504.058 542.216 504.058 551.189 506.469 554.939C508.88 558.689 512.094 567.394 512.094 567.394C512.094 567.394 494.684 571.278 490.13 568.599C485.577 565.921 457.586 567.26 457.586 567.26C457.586 567.26 457.72 562.573 457.586 562.037C457.463 561.452 457.458 560.848 457.573 560.261C457.688 559.674 457.92 559.117 458.256 558.622C459.194 557.349 460.667 555.207 459.863 553.332C459.06 551.457 461.872 548.699 460.399 545.792C458.926 542.886 457.129 542.312 457.492 540.724C457.854 539.136 456.917 536.996 455.845 535.655C454.774 534.314 447.542 520.161 447.542 520.161L446.337 513.556C446.337 513.556 437.016 506.726 437.19 503.512C437.364 500.297 440.712 495.845 440.712 495.845L449.685 487.039C449.685 487.039 454.64 492.396 459.461 490.521C464.283 488.646 474.641 479.673 474.641 479.673C474.641 479.673 478.345 477.664 478.613 476.191C478.881 474.718 481.157 476.057 481.157 476.057C481.157 476.057 484.505 474.22 485.175 474.871C485.845 475.521 488.791 476.057 488.791 476.057L490.666 473.379Z" fill="#FFCDE5"/>
<path d="M440.042 501.28L437.19 503.512C437.19 503.512 434.283 508.735 433.614 518.11C432.944 527.484 429.998 540.724 429.998 540.724L424.373 550.787C424.373 550.787 415.132 570.193 413.927 575.356C412.722 580.519 407.231 589.224 407.231 589.224C407.231 589.224 388.615 605.952 401.606 608.971C414.597 611.991 414.998 595.652 414.998 595.652C414.998 595.652 418.026 592.304 418.521 590.027C419.016 587.751 435.489 558.622 435.489 558.622C435.489 558.622 441.248 550.787 440.042 546.636C440.042 546.636 447.542 529.004 447.542 524.583C447.403 520.883 447 517.198 446.337 513.556L447.542 504.315L440.042 501.28Z" fill="#FFD2C6"/>
<path opacity="0.1" d="M478.613 538.198C478.613 538.198 465.488 545.068 462.943 545.43C460.399 545.792 474.059 543.957 474.059 543.957L478.613 538.198Z" fill="black"/>
<path opacity="0.1" d="M489.327 543.555C489.327 543.555 471.916 549.448 464.283 548.377C464.283 548.377 483.3 551.993 489.327 543.555Z" fill="black"/>
<path opacity="0.1" d="M490.398 545.478C490.398 545.478 474.726 555.341 465.487 553.734C465.487 553.734 487.05 558.019 490.398 555.742L480.755 553.064C480.755 553.064 491.469 547.4 490.398 545.478Z" fill="black"/>
<path opacity="0.1" d="M472.342 418.473C467.818 417.559 462.789 418.116 459.161 420.969C456.477 423.08 454.693 426.306 451.666 427.884C450.07 428.554 448.435 429.129 446.771 429.606C443.836 430.805 441.389 432.957 439.825 435.714C438.26 438.472 437.669 441.676 438.145 444.811C438.619 447.462 439.861 449.916 440.475 452.538C441.568 457.212 440.606 462.104 439.42 466.755C436.124 479.668 431.119 492.084 424.538 503.674C424.014 504.39 423.754 505.265 423.802 506.15C423.959 506.75 424.273 507.297 424.712 507.735C430.903 514.887 440.975 517.343 450.429 517.667C453.913 517.786 457.555 517.633 460.623 515.976C462.596 514.84 464.293 513.281 465.592 511.412C468.873 506.91 470.501 501.415 470.201 495.853C469.945 491.366 468.437 486.817 469.572 482.469C469.693 481.862 469.969 481.298 470.374 480.83C471.393 479.79 473.086 480.063 474.532 479.895C478.463 479.439 481.001 475.292 481.467 471.363C481.932 467.433 480.956 463.48 480.931 459.524C480.913 454.295 482.548 449.194 485.602 444.95C486.908 443.144 488.578 441.379 489.02 439.118C489.571 436.295 487.938 434.224 486.524 431.987C484.33 428.516 483.255 424.458 479.91 421.809C477.683 420.12 475.091 418.977 472.342 418.473Z" fill="black"/>
<path d="M471.27 417.401C466.746 416.488 461.717 417.045 458.089 419.898C455.406 422.008 453.622 425.235 450.594 426.813C448.998 427.482 447.364 428.057 445.7 428.534C442.765 429.734 440.318 431.885 438.753 434.643C437.189 437.401 436.597 440.605 437.074 443.74C437.547 446.391 438.79 448.845 439.403 451.467C440.496 456.14 439.534 461.033 438.348 465.683C435.052 478.597 430.047 491.013 423.466 502.602C422.943 503.318 422.683 504.193 422.73 505.079C422.887 505.679 423.202 506.226 423.641 506.664C429.831 513.816 439.904 516.272 449.357 516.595C452.842 516.715 456.484 516.562 459.551 514.905C461.524 513.768 463.221 512.21 464.521 510.34C467.802 505.839 469.43 500.343 469.13 494.781C468.873 490.295 467.366 485.746 468.5 481.398C468.621 480.791 468.898 480.226 469.303 479.758C470.322 478.718 472.015 478.992 473.461 478.824C477.392 478.368 479.929 474.221 480.395 470.291C480.861 466.362 479.884 462.409 479.86 458.452C479.842 453.223 481.476 448.123 484.53 443.879C485.837 442.073 487.507 440.308 487.949 438.047C488.5 435.224 486.866 433.152 485.453 430.916C483.259 427.445 482.183 423.386 478.838 420.738C476.612 419.048 474.02 417.905 471.27 417.401Z" fill="#985C7E"/>
<path opacity="0.1" d="M465.487 584.849C465.487 584.849 468.928 600.92 474.641 605.295L465.487 584.849Z" fill="black"/>
</g>
<defs>
<clipPath id="clip0">
<rect width="1077.87" height="818.139" fill="white"/>
</clipPath>
</defs>
</svg>
