<svg width="1078" height="819" viewBox="0 0 1078 819" fill="none" xmlns="http://www.w3.org/2000/svg">
<g clip-path="url(#clip0)">
<path d="M587.036 38.857C587.036 38.857 589.114 47.1718 567.288 70.0376C545.462 92.9034 554.123 138.981 577.335 137.596C577.335 137.596 599.035 141.175 606.841 126.402C608.465 123.214 609.194 119.645 608.95 116.076C608.706 112.506 607.499 109.07 605.456 106.132C598.283 95.5687 584.449 73.3695 587.036 62.7621V38.857Z" fill="#FFC13D"/>
<path opacity="0.5" d="M584.747 80.1283C584.747 80.1283 585.907 84.7673 573.729 97.5247C561.552 110.282 566.384 135.99 579.335 135.217C579.335 135.217 591.442 137.214 595.797 128.972C596.703 127.193 597.109 125.202 596.973 123.21C596.837 121.219 596.164 119.301 595.024 117.662C591.022 111.769 583.303 99.3836 584.747 93.4655V80.1283Z" fill="white"/>
</g>
<defs>
<clipPath id="clip0">
<rect width="1077.87" height="818.139" fill="white"/>
</clipPath>
</defs>
</svg>
