<svg width="1136" height="713" viewBox="0 0 1136 713" fill="none" xmlns="http://www.w3.org/2000/svg">
<g clip-path="url(#clip0)">
<path opacity="0.1" d="M1126.54 471.675C1115.15 499.065 1091.32 523.805 1065.74 547.235C1043.25 567.835 1019.2 587.742 993.58 606.955C986.48 612.288 979.266 617.555 971.94 622.755L966.85 626.345C962.336 629.538 957.746 632.702 953.08 635.835L952.52 636.215C947.993 639.295 943.426 642.345 938.82 645.365C923.75 655.265 907.82 665.095 890.21 673.235C884.21 676.015 878.02 678.605 871.61 680.925C868.143 682.185 864.603 683.365 860.99 684.465C855.07 686.265 848.99 687.835 842.64 689.125C841.58 689.345 840.51 689.555 839.44 689.755C832.94 690.975 826.36 691.865 819.71 692.475C795.34 694.705 770.17 693.075 745.76 689.255C733.56 687.345 721.55 684.885 709.93 682.085C708.5 681.745 707.08 681.395 705.65 681.085C666.08 671.185 628.93 657.745 589.08 648.295C575.346 645.035 561.346 642.268 547.08 639.995C540.12 638.888 533.12 637.888 526.08 636.995C509.51 634.935 492.73 633.555 475.88 632.855C453.16 631.855 429.7 632.285 408.08 636.255C405.2 636.782 402.356 637.375 399.55 638.035C395.99 638.868 392.496 639.818 389.07 640.885C379.832 643.87 370.842 647.571 362.18 651.955C360.47 652.795 358.78 653.645 357.09 654.505C351.79 657.205 346.56 659.965 341.25 662.645C331.693 667.647 321.747 671.867 311.51 675.265C305.902 677.036 300.2 678.492 294.43 679.625C279.16 682.685 262.91 683.895 246.59 683.975C238.72 683.975 230.84 683.805 223.05 683.395H222.81C220.15 683.255 217.48 683.095 214.81 682.895C202.65 682.065 190.53 680.785 178.59 679.035C137.68 673.035 98.8798 661.695 67.6698 644.395C25.2798 620.915 -1.6402 585.905 2.3998 550.925C5.2998 525.725 23.3098 502.325 40.3998 479.415C72.1898 436.755 101.97 393.125 117.64 347.135C130.35 309.805 134.14 270.335 163.39 236.785C172.76 226.045 184.74 216.245 198.69 207.655C209.117 201.271 220.046 195.746 231.37 191.135C244.168 185.893 257.333 181.598 270.76 178.285C282.396 175.398 294.189 173.181 306.08 171.645C312.54 170.805 319.08 170.155 325.66 169.715C330.726 169.362 335.816 169.138 340.93 169.045H341.72C344.846 168.985 347.973 168.985 351.1 169.045C373.898 169.398 396.635 171.534 419.1 175.435C433.16 177.785 447.1 180.665 460.75 183.835C468.896 185.722 476.97 187.698 484.97 189.765C487.41 190.395 489.85 191.035 492.26 191.685C549.18 206.935 599.26 227.995 654.1 245.275C654.38 245.365 654.65 245.455 654.93 245.525C666.185 248.986 677.614 251.857 689.17 254.125C697.66 255.825 706.34 257.295 715.17 258.585C728.69 260.585 742.5 262.165 756.41 263.525L759.48 263.825C779.89 265.825 800.48 267.315 820.48 269.055C827.58 269.675 834.62 270.315 841.56 271.055C845.96 271.495 850.32 271.962 854.64 272.455C857.74 272.815 860.85 273.175 863.96 273.555C867.07 273.935 870.36 274.335 873.56 274.745C875.64 275.005 877.71 275.275 879.79 275.565C892.39 277.235 904.96 279.105 917.39 281.245C924.95 282.545 932.47 283.945 939.9 285.455C945.28 286.548 950.613 287.702 955.9 288.915C959.82 289.802 963.706 290.735 967.56 291.715C998.87 299.585 1028.17 309.905 1053.42 323.835C1118.99 359.925 1148.33 419.295 1126.54 471.675Z" fill="#6C63FF"/>
</g>
<defs>
<clipPath id="clip0">
<rect width="1135.15" height="712.88" fill="white"/>
</clipPath>
</defs>
</svg>
