<svg width="1136" height="713" viewBox="0 0 1136 713" fill="none" xmlns="http://www.w3.org/2000/svg">
<g clip-path="url(#clip0)">
<path opacity="0.5" d="M1124.54 396.675C1113.15 424.065 1089.32 448.805 1063.74 472.235C1041.25 492.835 1017.2 512.742 991.58 531.955C984.48 537.288 977.266 542.555 969.94 547.755L964.85 551.345C960.336 554.538 955.746 557.702 951.08 560.835L950.52 561.215C945.993 564.295 941.426 567.345 936.82 570.365C921.75 580.265 905.82 590.095 888.21 598.235C882.21 601.015 876.02 603.605 869.61 605.925C866.143 607.185 862.603 608.365 858.99 609.465C853.07 611.265 846.99 612.835 840.64 614.125C839.58 614.345 838.51 614.555 837.44 614.755C830.94 615.975 824.36 616.865 817.71 617.475C793.34 619.705 768.17 618.075 743.76 614.255C731.56 612.345 719.55 609.885 707.93 607.085C706.5 606.745 705.08 606.395 703.65 606.085C664.08 596.185 626.93 582.745 587.08 573.295C573.346 570.035 559.346 567.268 545.08 564.995C538.12 563.888 531.12 562.888 524.08 561.995C507.51 559.935 490.73 558.555 473.88 557.855C451.16 556.855 427.7 557.285 406.08 561.255C403.2 561.782 400.356 562.375 397.55 563.035C393.99 563.868 390.496 564.818 387.07 565.885C377.832 568.87 368.842 572.571 360.18 576.955C358.47 577.795 356.78 578.645 355.09 579.505C349.79 582.205 344.56 584.965 339.25 587.645C329.693 592.647 319.747 596.867 309.51 600.265C303.902 602.036 298.2 603.492 292.43 604.625C277.16 607.685 260.91 608.895 244.59 608.975C236.72 608.975 228.84 608.805 221.05 608.395H220.81C218.15 608.255 215.48 608.095 212.81 607.895C200.65 607.065 188.53 605.785 176.59 604.035C135.68 598.035 96.8798 586.695 65.6698 569.395C23.2798 545.915 -3.6402 510.905 0.399799 475.925C3.2998 450.725 21.3098 427.325 38.3998 404.415C70.1898 361.755 99.9698 318.125 115.64 272.135C128.35 234.805 132.14 195.335 161.39 161.785C170.76 151.045 182.74 141.245 196.69 132.655C207.117 126.271 218.046 120.746 229.37 116.135C242.168 110.893 255.333 106.598 268.76 103.285C280.396 100.398 292.189 98.1811 304.08 96.645C310.54 95.805 317.08 95.155 323.66 94.715C328.726 94.3617 333.816 94.1383 338.93 94.045H339.72C342.846 93.985 345.973 93.985 349.1 94.045C371.898 94.398 394.635 96.5345 417.1 100.435C431.16 102.785 445.1 105.665 458.75 108.835C466.896 110.722 474.97 112.698 482.97 114.765C485.41 115.395 487.85 116.035 490.26 116.685C547.18 131.935 597.26 152.995 652.1 170.275C652.38 170.365 652.65 170.455 652.93 170.525C664.185 173.986 675.614 176.857 687.17 179.125C695.66 180.825 704.34 182.295 713.17 183.585C726.69 185.585 740.5 187.165 754.41 188.525L757.48 188.825C777.89 190.825 798.48 192.315 818.48 194.055C825.58 194.675 832.62 195.315 839.56 196.055C843.96 196.495 848.32 196.962 852.64 197.455C855.74 197.815 858.85 198.175 861.96 198.555C865.07 198.935 868.36 199.335 871.56 199.745C873.64 200.005 875.71 200.275 877.79 200.565C890.39 202.235 902.96 204.105 915.39 206.245C922.95 207.545 930.47 208.945 937.9 210.455C943.28 211.548 948.613 212.702 953.9 213.915C957.82 214.802 961.706 215.735 965.56 216.715C996.87 224.585 1026.17 234.905 1051.42 248.835C1116.99 284.925 1146.33 344.295 1124.54 396.675Z" fill="url(#paint0_radial)"/>
<path opacity="0.1" d="M610.63 137.26C622.576 137.26 632.26 127.576 632.26 115.63C632.26 103.684 622.576 94 610.63 94C598.684 94 589 103.684 589 115.63C589 127.576 598.684 137.26 610.63 137.26Z" fill="#6C63FF"/>
<path opacity="0.1" d="M986.63 180.26C998.576 180.26 1008.26 170.576 1008.26 158.63C1008.26 146.684 998.576 137 986.63 137C974.684 137 965 146.684 965 158.63C965 170.576 974.684 180.26 986.63 180.26Z" fill="#6C63FF"/>
<path opacity="0.1" d="M851.63 152.26C863.576 152.26 873.26 142.576 873.26 130.63C873.26 118.684 863.576 109 851.63 109C839.684 109 830 118.684 830 130.63C830 142.576 839.684 152.26 851.63 152.26Z" fill="#6C63FF"/>
<path opacity="0.1" d="M145.25 136.5C165.27 136.5 181.5 120.27 181.5 100.25C181.5 80.2297 165.27 64 145.25 64C125.23 64 109 80.2297 109 100.25C109 120.27 125.23 136.5 145.25 136.5Z" fill="#6C63FF"/>
<path opacity="0.1" d="M81.25 650.5C101.27 650.5 117.5 634.27 117.5 614.25C117.5 594.23 101.27 578 81.25 578C61.2297 578 45 594.23 45 614.25C45 634.27 61.2297 650.5 81.25 650.5Z" fill="#6C63FF"/>
<path opacity="0.1" d="M469.25 638.5C489.27 638.5 505.5 622.27 505.5 602.25C505.5 582.23 489.27 566 469.25 566C449.23 566 433 582.23 433 602.25C433 622.27 449.23 638.5 469.25 638.5Z" fill="#6C63FF"/>
<path opacity="0.1" d="M988.25 638.5C1008.27 638.5 1024.5 622.27 1024.5 602.25C1024.5 582.23 1008.27 566 988.25 566C968.23 566 952 582.23 952 602.25C952 622.27 968.23 638.5 988.25 638.5Z" fill="#6C63FF"/>
<path opacity="0.1" d="M415.25 130.5C435.27 130.5 451.5 114.27 451.5 94.25C451.5 74.2297 435.27 58 415.25 58C395.23 58 379 74.2297 379 94.25C379 114.27 395.23 130.5 415.25 130.5Z" fill="#6C63FF"/>
<path opacity="0.1" d="M1074.25 264.5C1094.27 264.5 1110.5 248.27 1110.5 228.25C1110.5 208.23 1094.27 192 1074.25 192C1054.23 192 1038 208.23 1038 228.25C1038 248.27 1054.23 264.5 1074.25 264.5Z" fill="#6C63FF"/>
<mask id="path-11-outside-1" maskUnits="userSpaceOnUse" x="41" y="207" width="987" height="264" fill="black">
<rect fill="white" x="41" y="207" width="987" height="264"/>
<path d="M72.0996 258.924L65.9961 289.686C65.3451 292.68 65.0195 294.812 65.0195 296.082C65.0195 296.766 65.2148 297.612 65.6055 298.621C62.3177 300.281 59.3392 301.111 56.6699 301.111C54.9447 301.111 54.082 300.428 54.082 299.061C54.082 298.377 54.4076 296.359 55.0586 293.006L61.8457 258.924H59.8438C55.0586 258.924 50.1107 260.258 45 262.928C46.3672 258.989 48.1738 256.336 50.4199 254.969C52.666 253.602 56.3118 252.918 61.3574 252.918H63.0664L68.0957 227.576C65.2311 227.999 62.5618 228.211 60.0879 228.211C54.9447 228.211 51.901 224.826 50.957 218.055C53.3008 220.008 56.4583 220.984 60.4297 220.984C65.6055 220.984 72.1159 220.48 79.9609 219.471L73.2715 252.918H98.9551C102.048 239.018 105.303 228.699 108.721 221.961C110.609 218.283 112.318 215.955 113.848 214.979C115.378 214.002 118.389 213.351 122.881 213.025C123.434 212.96 124.264 212.895 125.371 212.83C117.656 221.684 112.188 235.047 108.965 252.918H109.844C112.383 252.918 115.54 251.762 119.316 249.451C118.535 255.766 115.394 258.924 109.893 258.924H107.744C106.768 264.002 106.279 269.357 106.279 274.988C106.279 284.363 109.16 289.051 114.922 289.051C117.298 289.051 119.935 288.042 122.832 286.023C122.344 292.469 118.112 295.691 110.137 295.691C100.794 295.691 96.123 288.562 96.123 274.305C96.123 269.487 96.6764 264.36 97.7832 258.924H72.0996Z"/>
<path d="M149.785 269.861L148.809 271.717C144.707 279.367 142.656 285.291 142.656 289.49C142.656 290.727 143.128 291.932 144.072 293.104C143.291 293.364 141.533 293.999 138.799 295.008C137.529 295.464 136.325 295.691 135.186 295.691C132.907 295.691 131.768 294.601 131.768 292.42C131.768 287.895 134.583 280.994 140.215 271.717L141.729 269.227H139.238C133.9 269.227 129.766 270.057 126.836 271.717C128.366 266.215 132.484 263.465 139.189 263.465L145.244 263.611L146.562 261.658C151.673 253.976 159.486 243.641 170 230.652C173.548 226.258 176.201 223.523 177.959 222.449C179.717 221.375 183.118 220.398 188.164 219.52C187.22 225.379 186.748 230.831 186.748 235.877C186.748 249.256 188.294 262.814 191.387 276.551C193.079 284.103 195.667 288.969 199.15 291.15C196.09 294.178 193.47 295.691 191.289 295.691C186.146 295.691 182.174 286.87 179.375 269.227C174.004 269.812 168.584 270.105 163.115 270.105L149.785 269.861ZM153.301 264.1L163.164 264.344C169.902 264.344 175.062 264.116 178.643 263.66C177.145 252.234 176.396 242.762 176.396 235.242L176.445 231.58C175.371 232.947 172.962 235.91 169.219 240.467C162.448 248.768 157.484 256.01 154.326 262.195L153.301 264.1Z"/>
<path d="M232.305 268.25L228.008 289.686C227.389 292.778 227.08 294.78 227.08 295.691C227.08 296.603 227.292 297.579 227.715 298.621C224.362 300.281 221.351 301.111 218.682 301.111C216.989 301.111 216.143 300.428 216.143 299.061C216.143 298.344 216.468 296.31 217.119 292.957L222.246 267.371C214.01 265.516 209.893 262.781 209.893 259.168C209.893 258.419 210.055 257.459 210.381 256.287C213.896 259.184 218.161 261.284 223.174 262.586L226.543 245.691C227.096 242.924 227.373 240.955 227.373 239.783C227.373 238.644 226.982 237.602 226.201 236.658C230.531 235.031 233.542 234.217 235.234 234.217C237.253 234.217 238.262 235.389 238.262 237.732C238.262 238.286 237.725 241.134 236.65 246.277L233.232 263.465C242.607 263.465 250.273 261.154 256.23 256.531C262.188 251.909 265.166 245.984 265.166 238.758C265.166 234.786 263.604 231.596 260.479 229.188C257.386 226.746 253.285 225.525 248.174 225.525C232.939 225.525 220.716 231.906 211.504 244.666C210.723 242.648 210.332 241.069 210.332 239.93C210.332 235.014 214.727 230.441 223.516 226.209C232.337 221.945 241.875 219.812 252.129 219.812C267.689 219.812 275.469 225.542 275.469 237C275.469 245.366 271.416 252.674 263.311 258.924C255.238 265.174 245.798 268.299 234.99 268.299L232.305 268.25Z"/>
<path d="M300.957 268.25L296.66 289.686C296.042 292.778 295.732 294.78 295.732 295.691C295.732 296.603 295.944 297.579 296.367 298.621C293.014 300.281 290.003 301.111 287.334 301.111C285.641 301.111 284.795 300.428 284.795 299.061C284.795 298.344 285.12 296.31 285.771 292.957L290.898 267.371C282.663 265.516 278.545 262.781 278.545 259.168C278.545 258.419 278.708 257.459 279.033 256.287C282.549 259.184 286.813 261.284 291.826 262.586L295.195 245.691C295.749 242.924 296.025 240.955 296.025 239.783C296.025 238.644 295.635 237.602 294.854 236.658C299.183 235.031 302.194 234.217 303.887 234.217C305.905 234.217 306.914 235.389 306.914 237.732C306.914 238.286 306.377 241.134 305.303 246.277L301.885 263.465C311.26 263.465 318.926 261.154 324.883 256.531C330.84 251.909 333.818 245.984 333.818 238.758C333.818 234.786 332.256 231.596 329.131 229.188C326.038 226.746 321.937 225.525 316.826 225.525C301.592 225.525 289.368 231.906 280.156 244.666C279.375 242.648 278.984 241.069 278.984 239.93C278.984 235.014 283.379 230.441 292.168 226.209C300.99 221.945 310.527 219.812 320.781 219.812C336.341 219.812 344.121 225.542 344.121 237C344.121 245.366 340.068 252.674 331.963 258.924C323.89 265.174 314.45 268.299 303.643 268.299L300.957 268.25Z"/>
<path d="M376.006 260.096L371.221 284.266C370.602 287.326 370.293 289.327 370.293 290.271C370.293 291.183 370.488 292.16 370.879 293.201C367.559 294.861 364.564 295.691 361.895 295.691C360.169 295.691 359.307 295.008 359.307 293.641C359.307 292.924 359.648 290.89 360.332 287.537L365.752 260.096C363.766 251.209 360.755 243.038 356.719 235.584C352.715 228.13 348.63 223.149 344.463 220.643C347.881 218.266 350.469 217.078 352.227 217.078C358.477 217.078 365.801 229.855 374.199 255.408C380.612 249.777 386.227 243.934 391.045 237.879C395.895 231.824 398.32 227.592 398.32 225.184C398.32 223.849 397.783 222.677 396.709 221.668C399.476 220.431 401.657 219.812 403.252 219.812C405.921 219.812 407.256 221.229 407.256 224.061C407.256 227.218 404.033 232.508 397.588 239.93C391.143 247.352 383.949 254.074 376.006 260.096Z"/>
<path d="M438.457 247.254C437.611 245.464 437.188 243.771 437.188 242.176C437.188 236.577 441.712 231.45 450.762 226.795C459.844 222.14 469.805 219.812 480.645 219.812C486.699 219.812 491.582 220.968 495.293 223.279C499.036 225.59 500.908 228.618 500.908 232.361C500.908 239.295 495.977 245.805 486.113 251.893C491.875 253.455 496.383 255.815 499.639 258.973C502.926 262.13 504.57 265.711 504.57 269.715C504.57 277.592 500.29 284.298 491.729 289.832C483.167 295.366 472.799 298.133 460.625 298.133C451.673 298.133 447.197 295.317 447.197 289.686C447.197 288.351 447.686 285.226 448.662 280.311L455.547 245.691C456.1 242.924 456.377 240.955 456.377 239.783C456.377 238.644 455.986 237.602 455.205 236.658C459.502 235.031 462.513 234.217 464.238 234.217C466.257 234.217 467.266 235.372 467.266 237.684C467.266 238.27 466.729 241.134 465.654 246.277L459.258 278.357C458.542 282.068 458.184 284.493 458.184 285.633C458.184 289.734 462.09 291.785 469.902 291.785C476.315 291.785 481.8 289.946 486.357 286.268C490.947 282.557 493.242 278.113 493.242 272.938C493.242 268.901 491.973 265.743 489.434 263.465C486.895 261.186 482.663 259.428 476.738 258.191C474.622 259.038 472.311 259.461 469.805 259.461C468.958 259.461 467.9 259.314 466.631 259.021C467.575 255.538 468.747 253.195 470.146 251.99C471.579 250.786 473.874 250.184 477.031 250.184C477.845 250.184 478.936 250.232 480.303 250.33C487.236 245.252 490.703 240.223 490.703 235.242C490.703 229.35 486.211 226.404 477.227 226.404C462.676 226.404 449.753 233.354 438.457 247.254Z"/>
<path d="M549.395 226.795L537.334 287.488C543.551 286.674 547.962 286.268 550.566 286.268C554.798 286.268 556.914 289.214 556.914 295.105C554.538 294.292 552.031 293.885 549.395 293.885C546.855 293.885 543.747 294.129 540.068 294.617L528.936 296.082C524.964 296.635 522.181 296.912 520.586 296.912C517.852 296.912 515.915 296.261 514.775 294.959C513.636 293.657 512.952 291.281 512.725 287.83C515.036 289.1 517.445 289.734 519.951 289.734C521.318 289.734 523.597 289.49 526.787 289.002L538.896 228.26C535.381 228.846 532.337 229.139 529.766 229.139C525.273 229.139 523.027 226.502 523.027 221.229C524.297 222.075 525.892 222.498 527.812 222.498C530.156 222.498 533.574 222.075 538.066 221.229L545.781 219.764C551.152 218.787 555.254 218.299 558.086 218.299C562.48 218.299 565.02 221.245 565.703 227.137C563.88 226.258 561.976 225.818 559.99 225.818C557.484 225.818 554.668 226.046 551.543 226.502C551.055 226.6 550.339 226.697 549.395 226.795Z"/>
<path d="M569.17 247.449C567.835 245.919 567.168 244.096 567.168 241.98C567.168 236.577 571.742 231.531 580.889 226.844C590.068 222.156 599.899 219.812 610.381 219.812C626.527 219.812 634.6 224.956 634.6 235.242C634.6 240.223 632.858 244.471 629.375 247.986C625.924 251.469 619.886 255.099 611.26 258.875C619.04 276.616 625.745 285.486 631.377 285.486C634.339 285.486 637.513 283.403 640.898 279.236C641.061 280.05 641.143 280.62 641.143 280.945C641.143 283.68 639.531 286.528 636.309 289.49C633.086 292.42 629.977 293.885 626.982 293.885C619.365 293.885 611.243 283.501 602.617 262.732C600.892 263.221 599.329 263.465 597.93 263.465C597.246 263.465 596.611 263.335 596.025 263.074C597.23 256.922 600.29 253.846 605.205 253.846C606.182 253.846 607.386 254.041 608.818 254.432C619.495 250.851 624.834 244.91 624.834 236.609C624.834 233.549 623.304 231.043 620.244 229.09C617.217 227.104 613.343 226.111 608.623 226.111C600.615 226.111 592.917 228.113 585.527 232.117C578.138 236.089 572.686 241.199 569.17 247.449ZM586.748 298.621C583.428 300.281 580.417 301.111 577.715 301.111C576.022 301.111 575.176 300.428 575.176 299.061C575.176 298.344 575.55 296.31 576.299 292.957L585.674 245.691C586.227 242.957 586.504 240.988 586.504 239.783C586.504 238.644 586.113 237.602 585.332 236.658C589.661 235.031 592.673 234.217 594.365 234.217C596.416 234.217 597.441 235.389 597.441 237.732C597.441 238.286 596.904 241.134 595.83 246.277L587.188 289.686C586.569 292.713 586.26 294.845 586.26 296.082C586.26 296.766 586.423 297.612 586.748 298.621Z"/>
<path d="M688.799 229.139L677.812 284.266C677.194 287.326 676.885 289.327 676.885 290.271C676.885 291.183 677.096 292.16 677.52 293.201C674.167 294.861 671.156 295.691 668.486 295.691C666.794 295.691 665.947 295.008 665.947 293.641C665.947 292.957 666.273 290.939 666.924 287.586L678.545 229.139H671.758C664.043 229.139 657.386 229.871 651.787 231.336C652.861 227.007 654.31 224.305 656.133 223.23C657.956 222.156 661.943 221.619 668.096 221.619H701.152C710.039 221.619 715.915 218.413 718.779 212C719.919 213.921 720.488 215.467 720.488 216.639C720.488 220.87 717.868 224.272 712.627 226.844C709.469 228.374 703.48 229.139 694.658 229.139H688.799Z"/>
<path d="M740.752 258.924L734.648 289.686C733.997 292.68 733.672 294.812 733.672 296.082C733.672 296.766 733.867 297.612 734.258 298.621C730.97 300.281 727.992 301.111 725.322 301.111C723.597 301.111 722.734 300.428 722.734 299.061C722.734 298.377 723.06 296.359 723.711 293.006L730.498 258.924H728.496C723.711 258.924 718.763 260.258 713.652 262.928C715.02 258.989 716.826 256.336 719.072 254.969C721.318 253.602 724.964 252.918 730.01 252.918H731.719L736.748 227.576C733.883 227.999 731.214 228.211 728.74 228.211C723.597 228.211 720.553 224.826 719.609 218.055C721.953 220.008 725.111 220.984 729.082 220.984C734.258 220.984 740.768 220.48 748.613 219.471L741.924 252.918H767.607C770.7 239.018 773.955 228.699 777.373 221.961C779.261 218.283 780.97 215.955 782.5 214.979C784.03 214.002 787.041 213.351 791.533 213.025C792.087 212.96 792.917 212.895 794.023 212.83C786.309 221.684 780.84 235.047 777.617 252.918H778.496C781.035 252.918 784.193 251.762 787.969 249.451C787.188 255.766 784.046 258.924 778.545 258.924H776.396C775.42 264.002 774.932 269.357 774.932 274.988C774.932 284.363 777.812 289.051 783.574 289.051C785.951 289.051 788.587 288.042 791.484 286.023C790.996 292.469 786.764 295.691 778.789 295.691C769.447 295.691 764.775 288.562 764.775 274.305C764.775 269.487 765.329 264.36 766.436 258.924H740.752Z"/>
<path d="M801.348 247.742C800.566 246.049 800.176 244.308 800.176 242.518C800.176 236.658 804.652 231.417 813.604 226.795C822.555 222.14 832.695 219.812 844.023 219.812C855.938 219.812 865.312 222.449 872.148 227.723C879.017 232.996 882.451 240.223 882.451 249.402C882.451 261.609 877.129 272.368 866.484 281.678C860.853 286.593 853.805 290.613 845.342 293.738C836.911 296.863 828.838 298.426 821.123 298.426C813.701 298.426 809.99 295.643 809.99 290.076C809.99 288.058 810.625 283.891 811.895 277.576L818.242 245.691C818.796 242.957 819.072 240.988 819.072 239.783C819.072 238.644 818.682 237.602 817.9 236.658C822.23 235.031 825.241 234.217 826.934 234.217C828.952 234.217 829.961 235.389 829.961 237.732C829.961 238.286 829.44 241.134 828.398 246.277L823.076 272.986C821.742 279.79 821.074 284.07 821.074 285.828C821.074 287.781 821.725 289.116 823.027 289.832C824.362 290.516 826.852 290.857 830.498 290.857C842.314 290.857 852.21 287.26 860.186 280.066C868.161 272.872 872.148 263.953 872.148 253.309C872.148 245.073 869.251 238.481 863.457 233.533C857.663 228.585 849.948 226.111 840.312 226.111C832.467 226.111 825.143 227.999 818.34 231.775C811.569 235.551 805.905 240.874 801.348 247.742Z"/>
<path d="M905.059 269.861L904.082 271.717C899.98 279.367 897.93 285.291 897.93 289.49C897.93 290.727 898.402 291.932 899.346 293.104C898.564 293.364 896.807 293.999 894.072 295.008C892.803 295.464 891.598 295.691 890.459 295.691C888.18 295.691 887.041 294.601 887.041 292.42C887.041 287.895 889.857 280.994 895.488 271.717L897.002 269.227H894.512C889.173 269.227 885.039 270.057 882.109 271.717C883.639 266.215 887.757 263.465 894.463 263.465L900.518 263.611L901.836 261.658C906.947 253.976 914.759 243.641 925.273 230.652C928.822 226.258 931.475 223.523 933.232 222.449C934.99 221.375 938.392 220.398 943.438 219.52C942.493 225.379 942.021 230.831 942.021 235.877C942.021 249.256 943.568 262.814 946.66 276.551C948.353 284.103 950.941 288.969 954.424 291.15C951.364 294.178 948.743 295.691 946.562 295.691C941.419 295.691 937.448 286.87 934.648 269.227C929.277 269.812 923.857 270.105 918.389 270.105L905.059 269.861ZM908.574 264.1L918.438 264.344C925.176 264.344 930.335 264.116 933.916 263.66C932.419 252.234 931.67 242.762 931.67 235.242L931.719 231.58C930.645 232.947 928.236 235.91 924.492 240.467C917.721 248.768 912.757 256.01 909.6 262.195L908.574 264.1Z"/>
<path d="M993.975 260.096L989.189 284.266C988.571 287.326 988.262 289.327 988.262 290.271C988.262 291.183 988.457 292.16 988.848 293.201C985.527 294.861 982.533 295.691 979.863 295.691C978.138 295.691 977.275 295.008 977.275 293.641C977.275 292.924 977.617 290.89 978.301 287.537L983.721 260.096C981.735 251.209 978.724 243.038 974.688 235.584C970.684 228.13 966.598 223.149 962.432 220.643C965.85 218.266 968.438 217.078 970.195 217.078C976.445 217.078 983.77 229.855 992.168 255.408C998.581 249.777 1004.2 243.934 1009.01 237.879C1013.86 231.824 1016.29 227.592 1016.29 225.184C1016.29 223.849 1015.75 222.677 1014.68 221.668C1017.44 220.431 1019.63 219.812 1021.22 219.812C1023.89 219.812 1025.22 221.229 1025.22 224.061C1025.22 227.218 1022 232.508 1015.56 239.93C1009.11 247.352 1001.92 254.074 993.975 260.096Z"/>
<path d="M155.078 435.744C155.82 437.502 156.191 438.889 156.191 439.904C156.191 444.982 151.836 449.943 143.125 454.787C134.453 459.631 125.547 462.053 116.406 462.053C106.406 462.053 98.4961 459.143 92.6758 453.322C86.8945 447.502 84.0039 439.533 84.0039 429.416C84.0039 413.439 89.2383 399.709 99.707 388.225C110.176 376.74 122.695 370.998 137.266 370.998C143.203 370.998 148.203 372.053 152.266 374.162C156.328 376.271 158.359 378.85 158.359 381.896C158.359 384.631 156.602 387.639 153.086 390.92C148.359 381.467 141.66 376.74 132.988 376.74C123.496 376.74 115.215 381.682 108.145 391.564C101.074 401.408 97.5391 412.912 97.5391 426.076C97.5391 434.475 99.6484 441.135 103.867 446.057C108.125 450.939 113.867 453.381 121.094 453.381C133.438 453.381 144.766 447.502 155.078 435.744Z"/>
<path d="M197.91 417.932L190.586 454.846C189.805 458.439 189.414 460.998 189.414 462.521C189.414 463.342 189.648 464.357 190.117 465.568C186.172 467.561 182.598 468.557 179.395 468.557C177.324 468.557 176.289 467.736 176.289 466.096C176.289 465.275 176.68 462.854 177.461 458.83L185.605 417.932H183.203C177.461 417.932 171.523 419.533 165.391 422.736C167.031 418.01 169.199 414.826 171.895 413.186C174.59 411.545 178.965 410.725 185.02 410.725H187.07L193.105 380.314C189.668 380.822 186.465 381.076 183.496 381.076C177.324 381.076 173.672 377.014 172.539 368.889C175.352 371.232 179.141 372.404 183.906 372.404C190.117 372.404 197.93 371.799 207.344 370.588L199.316 410.725H230.137C233.848 394.045 237.754 381.662 241.855 373.576C244.121 369.162 246.172 366.369 248.008 365.197C249.844 364.025 253.457 363.244 258.848 362.854C259.512 362.775 260.508 362.697 261.836 362.619C252.578 373.244 246.016 389.279 242.148 410.725H243.203C246.25 410.725 250.039 409.338 254.57 406.564C253.633 414.143 249.863 417.932 243.262 417.932H240.684C239.512 424.025 238.926 430.451 238.926 437.209C238.926 448.459 242.383 454.084 249.297 454.084C252.148 454.084 255.312 452.873 258.789 450.451C258.203 458.186 253.125 462.053 243.555 462.053C232.344 462.053 226.738 453.498 226.738 436.389C226.738 430.607 227.402 424.455 228.73 417.932H197.91Z"/>
<path d="M291.133 431.057L289.961 433.283C285.039 442.463 282.578 449.572 282.578 454.611C282.578 456.096 283.145 457.541 284.277 458.947C283.34 459.26 281.23 460.021 277.949 461.232C276.426 461.779 274.98 462.053 273.613 462.053C270.879 462.053 269.512 460.744 269.512 458.127C269.512 452.697 272.891 444.416 279.648 433.283L281.465 430.295H278.477C272.07 430.295 267.109 431.291 263.594 433.283C265.43 426.682 270.371 423.381 278.418 423.381L285.684 423.557L287.266 421.213C293.398 411.994 302.773 399.592 315.391 384.006C319.648 378.732 322.832 375.451 324.941 374.162C327.051 372.873 331.133 371.701 337.188 370.646C336.055 377.678 335.488 384.221 335.488 390.275C335.488 406.33 337.344 422.6 341.055 439.084C343.086 448.146 346.191 453.986 350.371 456.604C346.699 460.236 343.555 462.053 340.938 462.053C334.766 462.053 330 451.467 326.641 430.295C320.195 430.998 313.691 431.35 307.129 431.35L291.133 431.057ZM295.352 424.143L307.188 424.436C315.273 424.436 321.465 424.162 325.762 423.615C323.965 409.904 323.066 398.537 323.066 389.514L323.125 385.119C321.836 386.76 318.945 390.314 314.453 395.783C306.328 405.744 300.371 414.436 296.582 421.857L295.352 424.143Z"/>
<path d="M424.434 433.811C412.676 450.725 401.133 459.182 389.805 459.182C383.672 459.182 378.613 456.955 374.629 452.502C370.645 448.01 368.652 442.326 368.652 435.451C368.652 421.662 374.004 403.361 384.707 380.549C381.465 381.174 378.457 381.486 375.684 381.486C372.051 381.486 369.375 380.588 367.656 378.791C365.938 376.955 364.746 373.791 364.082 369.299C367.012 371.604 370.801 372.756 375.449 372.756C378.105 372.756 386.973 372.072 402.051 370.705C388.262 397.658 381.367 418.225 381.367 432.404C381.367 437.482 382.617 441.643 385.117 444.885C387.656 448.127 390.898 449.748 394.844 449.748C400.391 449.748 405.879 447.033 411.309 441.604C416.777 436.135 421.914 428.225 426.719 417.873C430.156 398.85 433.203 387.15 435.859 382.775C438.555 378.4 443.965 376.213 452.09 376.213C448.535 380.783 445.02 390.334 441.543 404.865C438.066 419.357 436.328 431.74 436.328 442.014C436.328 450.1 438.789 454.143 443.711 454.143C446.797 454.143 450.43 452.482 454.609 449.162C454.766 450.1 454.844 450.803 454.844 451.271C454.844 453.928 453.242 456.389 450.039 458.654C446.836 460.92 443.359 462.053 439.609 462.053C429.102 462.053 423.848 455.373 423.848 442.014C423.848 440.139 424.043 437.404 424.434 433.811Z"/>
<path d="M464.219 404.514C463.281 402.482 462.812 400.393 462.812 398.244C462.812 391.213 468.184 384.924 478.926 379.377C489.668 373.791 501.836 370.998 515.43 370.998C529.727 370.998 540.977 374.162 549.18 380.49C557.422 386.818 561.543 395.49 561.543 406.506C561.543 421.154 555.156 434.064 542.383 445.236C535.625 451.135 527.168 455.959 517.012 459.709C506.895 463.459 497.207 465.334 487.949 465.334C479.043 465.334 474.59 461.994 474.59 455.314C474.59 452.893 475.352 447.893 476.875 440.314L484.492 402.053C485.156 398.771 485.488 396.408 485.488 394.963C485.488 393.596 485.02 392.346 484.082 391.213C489.277 389.26 492.891 388.283 494.922 388.283C497.344 388.283 498.555 389.689 498.555 392.502C498.555 393.166 497.93 396.584 496.68 402.756L490.293 434.807C488.691 442.971 487.891 448.107 487.891 450.217C487.891 452.561 488.672 454.162 490.234 455.021C491.836 455.842 494.824 456.252 499.199 456.252C513.379 456.252 525.254 451.936 534.824 443.303C544.395 434.67 549.18 423.967 549.18 411.193C549.18 401.311 545.703 393.4 538.75 387.463C531.797 381.525 522.539 378.557 510.977 378.557C501.562 378.557 492.773 380.822 484.609 385.354C476.484 389.885 469.688 396.271 464.219 404.514Z"/>
<path d="M569.16 404.162C567.559 402.326 566.758 400.139 566.758 397.6C566.758 391.115 572.246 385.061 583.223 379.436C594.238 373.811 606.035 370.998 618.613 370.998C637.988 370.998 647.676 377.17 647.676 389.514C647.676 395.49 645.586 400.588 641.406 404.807C637.266 408.986 630.02 413.342 619.668 417.873C629.004 439.162 637.051 449.807 643.809 449.807C647.363 449.807 651.172 447.307 655.234 442.307C655.43 443.283 655.527 443.967 655.527 444.357C655.527 447.639 653.594 451.057 649.727 454.611C645.859 458.127 642.129 459.885 638.535 459.885C629.395 459.885 619.648 447.424 609.297 422.502C607.227 423.088 605.352 423.381 603.672 423.381C602.852 423.381 602.09 423.225 601.387 422.912C602.832 415.529 606.504 411.838 612.402 411.838C613.574 411.838 615.02 412.072 616.738 412.541C629.551 408.244 635.957 401.115 635.957 391.154C635.957 387.482 634.121 384.475 630.449 382.131C626.816 379.748 622.168 378.557 616.504 378.557C606.895 378.557 597.656 380.959 588.789 385.764C579.922 390.529 573.379 396.662 569.16 404.162ZM590.254 465.568C586.27 467.561 582.656 468.557 579.414 468.557C577.383 468.557 576.367 467.736 576.367 466.096C576.367 465.236 576.816 462.795 577.715 458.771L588.965 402.053C589.629 398.771 589.961 396.408 589.961 394.963C589.961 393.596 589.492 392.346 588.555 391.213C593.75 389.26 597.363 388.283 599.395 388.283C601.855 388.283 603.086 389.689 603.086 392.502C603.086 393.166 602.441 396.584 601.152 402.756L590.781 454.846C590.039 458.479 589.668 461.037 589.668 462.521C589.668 463.342 589.863 464.357 590.254 465.568Z"/>
<path d="M690.742 416.525L687.754 431.584C686.504 437.834 685.879 442.268 685.879 444.885C685.879 450.08 690.918 452.678 700.996 452.678C710.996 452.678 719.805 450.9 727.422 447.346C725.664 453.205 722.754 456.818 718.691 458.186C716.23 459.006 711.953 459.846 705.859 460.705C699.766 461.604 695.078 462.053 691.797 462.053C679.023 462.053 672.637 457.814 672.637 449.338C672.637 447.072 673.262 442.717 674.512 436.271L678.438 416.525H677.559C673.613 416.525 669.785 417.385 666.074 419.104C668.223 414.885 669.98 412.189 671.348 411.018C672.754 409.846 674.961 409.26 677.969 409.26H679.902L685.645 380.373H683.945C676.719 380.373 670.02 382.678 663.848 387.287C665.801 381.037 668.477 377.014 671.875 375.217C674.531 373.85 682.715 373.166 696.426 373.166H713.887C724.902 373.166 733.848 372.072 740.723 369.885C737.637 374.768 734.883 377.736 732.461 378.791C730.078 379.846 724.883 380.373 716.875 380.373H697.949L692.148 409.26H704.277C712.754 409.26 719.512 408.186 724.551 406.037C721.895 410.998 719.531 413.986 717.461 415.002C715.391 416.018 710.527 416.525 702.871 416.525H690.742Z"/>
<path d="M774.473 419.338L768.73 448.342C767.988 452.014 767.617 454.416 767.617 455.549C767.617 456.643 767.852 457.814 768.32 459.064C764.336 461.057 760.742 462.053 757.539 462.053C755.469 462.053 754.434 461.232 754.434 459.592C754.434 458.732 754.844 456.291 755.664 452.268L762.168 419.338C759.785 408.674 756.172 398.869 751.328 389.924C746.523 380.979 741.621 375.002 736.621 371.994C740.723 369.143 743.828 367.717 745.938 367.717C753.438 367.717 762.227 383.049 772.305 413.713C780 406.955 786.738 399.943 792.52 392.678C798.34 385.412 801.25 380.334 801.25 377.443C801.25 375.842 800.605 374.436 799.316 373.225C802.637 371.74 805.254 370.998 807.168 370.998C810.371 370.998 811.973 372.697 811.973 376.096C811.973 379.885 808.105 386.232 800.371 395.139C792.637 404.045 784.004 412.111 774.473 419.338Z"/>
<path d="M840.332 436.271C839.746 436.389 838.711 436.604 837.227 436.916C836.641 437.033 835.996 437.092 835.293 437.092C831.973 437.092 830.312 435.549 830.312 432.463C830.312 430.705 830.664 428.127 831.367 424.729L832.539 418.811C835.391 404.592 836.816 391.447 836.816 379.377C836.816 378.166 836.66 376.799 836.348 375.275C839.824 373.869 842.129 373.166 843.262 373.166C847.129 373.166 849.062 375.236 849.062 379.377C849.062 383.049 847.52 391.35 844.434 404.279C843.027 410.178 841.953 415.021 841.211 418.811L840.391 422.854C839.805 425.783 839.512 428.576 839.512 431.232C839.512 432.951 839.785 434.631 840.332 436.271ZM824.629 445.822L828.848 445.002C831.66 444.455 833.711 444.182 835 444.182C838.398 444.182 840.098 445.959 840.098 449.514C840.098 450.92 839.902 452.619 839.512 454.611L838.75 458.596L836.055 459.064C832.227 459.768 829.941 460.119 829.199 460.119C826.426 460.119 825.039 458.674 825.039 455.783C825.039 455.002 825.117 454.24 825.273 453.498L825.566 451.975C825.723 451.311 825.801 450.607 825.801 449.865C825.801 448.264 825.41 446.916 824.629 445.822Z"/>
<path d="M886.387 436.271C885.801 436.389 884.766 436.604 883.281 436.916C882.695 437.033 882.051 437.092 881.348 437.092C878.027 437.092 876.367 435.549 876.367 432.463C876.367 430.705 876.719 428.127 877.422 424.729L878.594 418.811C881.445 404.592 882.871 391.447 882.871 379.377C882.871 378.166 882.715 376.799 882.402 375.275C885.879 373.869 888.184 373.166 889.316 373.166C893.184 373.166 895.117 375.236 895.117 379.377C895.117 383.049 893.574 391.35 890.488 404.279C889.082 410.178 888.008 415.021 887.266 418.811L886.445 422.854C885.859 425.783 885.566 428.576 885.566 431.232C885.566 432.951 885.84 434.631 886.387 436.271ZM870.684 445.822L874.902 445.002C877.715 444.455 879.766 444.182 881.055 444.182C884.453 444.182 886.152 445.959 886.152 449.514C886.152 450.92 885.957 452.619 885.566 454.611L884.805 458.596L882.109 459.064C878.281 459.768 875.996 460.119 875.254 460.119C872.48 460.119 871.094 458.674 871.094 455.783C871.094 455.002 871.172 454.24 871.328 453.498L871.621 451.975C871.777 451.311 871.855 450.607 871.855 449.865C871.855 448.264 871.465 446.916 870.684 445.822Z"/>
<path d="M932.441 436.271C931.855 436.389 930.82 436.604 929.336 436.916C928.75 437.033 928.105 437.092 927.402 437.092C924.082 437.092 922.422 435.549 922.422 432.463C922.422 430.705 922.773 428.127 923.477 424.729L924.648 418.811C927.5 404.592 928.926 391.447 928.926 379.377C928.926 378.166 928.77 376.799 928.457 375.275C931.934 373.869 934.238 373.166 935.371 373.166C939.238 373.166 941.172 375.236 941.172 379.377C941.172 383.049 939.629 391.35 936.543 404.279C935.137 410.178 934.062 415.021 933.32 418.811L932.5 422.854C931.914 425.783 931.621 428.576 931.621 431.232C931.621 432.951 931.895 434.631 932.441 436.271ZM916.738 445.822L920.957 445.002C923.77 444.455 925.82 444.182 927.109 444.182C930.508 444.182 932.207 445.959 932.207 449.514C932.207 450.92 932.012 452.619 931.621 454.611L930.859 458.596L928.164 459.064C924.336 459.768 922.051 460.119 921.309 460.119C918.535 460.119 917.148 458.674 917.148 455.783C917.148 455.002 917.227 454.24 917.383 453.498L917.676 451.975C917.832 451.311 917.91 450.607 917.91 449.865C917.91 448.264 917.52 446.916 916.738 445.822Z"/>
</mask>
<path d="M72.0996 258.924L65.9961 289.686C65.3451 292.68 65.0195 294.812 65.0195 296.082C65.0195 296.766 65.2148 297.612 65.6055 298.621C62.3177 300.281 59.3392 301.111 56.6699 301.111C54.9447 301.111 54.082 300.428 54.082 299.061C54.082 298.377 54.4076 296.359 55.0586 293.006L61.8457 258.924H59.8438C55.0586 258.924 50.1107 260.258 45 262.928C46.3672 258.989 48.1738 256.336 50.4199 254.969C52.666 253.602 56.3118 252.918 61.3574 252.918H63.0664L68.0957 227.576C65.2311 227.999 62.5618 228.211 60.0879 228.211C54.9447 228.211 51.901 224.826 50.957 218.055C53.3008 220.008 56.4583 220.984 60.4297 220.984C65.6055 220.984 72.1159 220.48 79.9609 219.471L73.2715 252.918H98.9551C102.048 239.018 105.303 228.699 108.721 221.961C110.609 218.283 112.318 215.955 113.848 214.979C115.378 214.002 118.389 213.351 122.881 213.025C123.434 212.96 124.264 212.895 125.371 212.83C117.656 221.684 112.188 235.047 108.965 252.918H109.844C112.383 252.918 115.54 251.762 119.316 249.451C118.535 255.766 115.394 258.924 109.893 258.924H107.744C106.768 264.002 106.279 269.357 106.279 274.988C106.279 284.363 109.16 289.051 114.922 289.051C117.298 289.051 119.935 288.042 122.832 286.023C122.344 292.469 118.112 295.691 110.137 295.691C100.794 295.691 96.123 288.562 96.123 274.305C96.123 269.487 96.6764 264.36 97.7832 258.924H72.0996Z" fill="#FF8484"/>
<path d="M149.785 269.861L148.809 271.717C144.707 279.367 142.656 285.291 142.656 289.49C142.656 290.727 143.128 291.932 144.072 293.104C143.291 293.364 141.533 293.999 138.799 295.008C137.529 295.464 136.325 295.691 135.186 295.691C132.907 295.691 131.768 294.601 131.768 292.42C131.768 287.895 134.583 280.994 140.215 271.717L141.729 269.227H139.238C133.9 269.227 129.766 270.057 126.836 271.717C128.366 266.215 132.484 263.465 139.189 263.465L145.244 263.611L146.562 261.658C151.673 253.976 159.486 243.641 170 230.652C173.548 226.258 176.201 223.523 177.959 222.449C179.717 221.375 183.118 220.398 188.164 219.52C187.22 225.379 186.748 230.831 186.748 235.877C186.748 249.256 188.294 262.814 191.387 276.551C193.079 284.103 195.667 288.969 199.15 291.15C196.09 294.178 193.47 295.691 191.289 295.691C186.146 295.691 182.174 286.87 179.375 269.227C174.004 269.812 168.584 270.105 163.115 270.105L149.785 269.861ZM153.301 264.1L163.164 264.344C169.902 264.344 175.062 264.116 178.643 263.66C177.145 252.234 176.396 242.762 176.396 235.242L176.445 231.58C175.371 232.947 172.962 235.91 169.219 240.467C162.448 248.768 157.484 256.01 154.326 262.195L153.301 264.1Z" fill="#FF8484"/>
<path d="M232.305 268.25L228.008 289.686C227.389 292.778 227.08 294.78 227.08 295.691C227.08 296.603 227.292 297.579 227.715 298.621C224.362 300.281 221.351 301.111 218.682 301.111C216.989 301.111 216.143 300.428 216.143 299.061C216.143 298.344 216.468 296.31 217.119 292.957L222.246 267.371C214.01 265.516 209.893 262.781 209.893 259.168C209.893 258.419 210.055 257.459 210.381 256.287C213.896 259.184 218.161 261.284 223.174 262.586L226.543 245.691C227.096 242.924 227.373 240.955 227.373 239.783C227.373 238.644 226.982 237.602 226.201 236.658C230.531 235.031 233.542 234.217 235.234 234.217C237.253 234.217 238.262 235.389 238.262 237.732C238.262 238.286 237.725 241.134 236.65 246.277L233.232 263.465C242.607 263.465 250.273 261.154 256.23 256.531C262.188 251.909 265.166 245.984 265.166 238.758C265.166 234.786 263.604 231.596 260.479 229.188C257.386 226.746 253.285 225.525 248.174 225.525C232.939 225.525 220.716 231.906 211.504 244.666C210.723 242.648 210.332 241.069 210.332 239.93C210.332 235.014 214.727 230.441 223.516 226.209C232.337 221.945 241.875 219.812 252.129 219.812C267.689 219.812 275.469 225.542 275.469 237C275.469 245.366 271.416 252.674 263.311 258.924C255.238 265.174 245.798 268.299 234.99 268.299L232.305 268.25Z" fill="#FF8484"/>
<path d="M300.957 268.25L296.66 289.686C296.042 292.778 295.732 294.78 295.732 295.691C295.732 296.603 295.944 297.579 296.367 298.621C293.014 300.281 290.003 301.111 287.334 301.111C285.641 301.111 284.795 300.428 284.795 299.061C284.795 298.344 285.12 296.31 285.771 292.957L290.898 267.371C282.663 265.516 278.545 262.781 278.545 259.168C278.545 258.419 278.708 257.459 279.033 256.287C282.549 259.184 286.813 261.284 291.826 262.586L295.195 245.691C295.749 242.924 296.025 240.955 296.025 239.783C296.025 238.644 295.635 237.602 294.854 236.658C299.183 235.031 302.194 234.217 303.887 234.217C305.905 234.217 306.914 235.389 306.914 237.732C306.914 238.286 306.377 241.134 305.303 246.277L301.885 263.465C311.26 263.465 318.926 261.154 324.883 256.531C330.84 251.909 333.818 245.984 333.818 238.758C333.818 234.786 332.256 231.596 329.131 229.188C326.038 226.746 321.937 225.525 316.826 225.525C301.592 225.525 289.368 231.906 280.156 244.666C279.375 242.648 278.984 241.069 278.984 239.93C278.984 235.014 283.379 230.441 292.168 226.209C300.99 221.945 310.527 219.812 320.781 219.812C336.341 219.812 344.121 225.542 344.121 237C344.121 245.366 340.068 252.674 331.963 258.924C323.89 265.174 314.45 268.299 303.643 268.299L300.957 268.25Z" fill="#FF8484"/>
<path d="M376.006 260.096L371.221 284.266C370.602 287.326 370.293 289.327 370.293 290.271C370.293 291.183 370.488 292.16 370.879 293.201C367.559 294.861 364.564 295.691 361.895 295.691C360.169 295.691 359.307 295.008 359.307 293.641C359.307 292.924 359.648 290.89 360.332 287.537L365.752 260.096C363.766 251.209 360.755 243.038 356.719 235.584C352.715 228.13 348.63 223.149 344.463 220.643C347.881 218.266 350.469 217.078 352.227 217.078C358.477 217.078 365.801 229.855 374.199 255.408C380.612 249.777 386.227 243.934 391.045 237.879C395.895 231.824 398.32 227.592 398.32 225.184C398.32 223.849 397.783 222.677 396.709 221.668C399.476 220.431 401.657 219.812 403.252 219.812C405.921 219.812 407.256 221.229 407.256 224.061C407.256 227.218 404.033 232.508 397.588 239.93C391.143 247.352 383.949 254.074 376.006 260.096Z" fill="#FF8484"/>
<path d="M438.457 247.254C437.611 245.464 437.188 243.771 437.188 242.176C437.188 236.577 441.712 231.45 450.762 226.795C459.844 222.14 469.805 219.812 480.645 219.812C486.699 219.812 491.582 220.968 495.293 223.279C499.036 225.59 500.908 228.618 500.908 232.361C500.908 239.295 495.977 245.805 486.113 251.893C491.875 253.455 496.383 255.815 499.639 258.973C502.926 262.13 504.57 265.711 504.57 269.715C504.57 277.592 500.29 284.298 491.729 289.832C483.167 295.366 472.799 298.133 460.625 298.133C451.673 298.133 447.197 295.317 447.197 289.686C447.197 288.351 447.686 285.226 448.662 280.311L455.547 245.691C456.1 242.924 456.377 240.955 456.377 239.783C456.377 238.644 455.986 237.602 455.205 236.658C459.502 235.031 462.513 234.217 464.238 234.217C466.257 234.217 467.266 235.372 467.266 237.684C467.266 238.27 466.729 241.134 465.654 246.277L459.258 278.357C458.542 282.068 458.184 284.493 458.184 285.633C458.184 289.734 462.09 291.785 469.902 291.785C476.315 291.785 481.8 289.946 486.357 286.268C490.947 282.557 493.242 278.113 493.242 272.938C493.242 268.901 491.973 265.743 489.434 263.465C486.895 261.186 482.663 259.428 476.738 258.191C474.622 259.038 472.311 259.461 469.805 259.461C468.958 259.461 467.9 259.314 466.631 259.021C467.575 255.538 468.747 253.195 470.146 251.99C471.579 250.786 473.874 250.184 477.031 250.184C477.845 250.184 478.936 250.232 480.303 250.33C487.236 245.252 490.703 240.223 490.703 235.242C490.703 229.35 486.211 226.404 477.227 226.404C462.676 226.404 449.753 233.354 438.457 247.254Z" fill="#FF8484"/>
<path d="M549.395 226.795L537.334 287.488C543.551 286.674 547.962 286.268 550.566 286.268C554.798 286.268 556.914 289.214 556.914 295.105C554.538 294.292 552.031 293.885 549.395 293.885C546.855 293.885 543.747 294.129 540.068 294.617L528.936 296.082C524.964 296.635 522.181 296.912 520.586 296.912C517.852 296.912 515.915 296.261 514.775 294.959C513.636 293.657 512.952 291.281 512.725 287.83C515.036 289.1 517.445 289.734 519.951 289.734C521.318 289.734 523.597 289.49 526.787 289.002L538.896 228.26C535.381 228.846 532.337 229.139 529.766 229.139C525.273 229.139 523.027 226.502 523.027 221.229C524.297 222.075 525.892 222.498 527.812 222.498C530.156 222.498 533.574 222.075 538.066 221.229L545.781 219.764C551.152 218.787 555.254 218.299 558.086 218.299C562.48 218.299 565.02 221.245 565.703 227.137C563.88 226.258 561.976 225.818 559.99 225.818C557.484 225.818 554.668 226.046 551.543 226.502C551.055 226.6 550.339 226.697 549.395 226.795Z" fill="#FF8484"/>
<path d="M569.17 247.449C567.835 245.919 567.168 244.096 567.168 241.98C567.168 236.577 571.742 231.531 580.889 226.844C590.068 222.156 599.899 219.812 610.381 219.812C626.527 219.812 634.6 224.956 634.6 235.242C634.6 240.223 632.858 244.471 629.375 247.986C625.924 251.469 619.886 255.099 611.26 258.875C619.04 276.616 625.745 285.486 631.377 285.486C634.339 285.486 637.513 283.403 640.898 279.236C641.061 280.05 641.143 280.62 641.143 280.945C641.143 283.68 639.531 286.528 636.309 289.49C633.086 292.42 629.977 293.885 626.982 293.885C619.365 293.885 611.243 283.501 602.617 262.732C600.892 263.221 599.329 263.465 597.93 263.465C597.246 263.465 596.611 263.335 596.025 263.074C597.23 256.922 600.29 253.846 605.205 253.846C606.182 253.846 607.386 254.041 608.818 254.432C619.495 250.851 624.834 244.91 624.834 236.609C624.834 233.549 623.304 231.043 620.244 229.09C617.217 227.104 613.343 226.111 608.623 226.111C600.615 226.111 592.917 228.113 585.527 232.117C578.138 236.089 572.686 241.199 569.17 247.449ZM586.748 298.621C583.428 300.281 580.417 301.111 577.715 301.111C576.022 301.111 575.176 300.428 575.176 299.061C575.176 298.344 575.55 296.31 576.299 292.957L585.674 245.691C586.227 242.957 586.504 240.988 586.504 239.783C586.504 238.644 586.113 237.602 585.332 236.658C589.661 235.031 592.673 234.217 594.365 234.217C596.416 234.217 597.441 235.389 597.441 237.732C597.441 238.286 596.904 241.134 595.83 246.277L587.188 289.686C586.569 292.713 586.26 294.845 586.26 296.082C586.26 296.766 586.423 297.612 586.748 298.621Z" fill="#FF8484"/>
<path d="M688.799 229.139L677.812 284.266C677.194 287.326 676.885 289.327 676.885 290.271C676.885 291.183 677.096 292.16 677.52 293.201C674.167 294.861 671.156 295.691 668.486 295.691C666.794 295.691 665.947 295.008 665.947 293.641C665.947 292.957 666.273 290.939 666.924 287.586L678.545 229.139H671.758C664.043 229.139 657.386 229.871 651.787 231.336C652.861 227.007 654.31 224.305 656.133 223.23C657.956 222.156 661.943 221.619 668.096 221.619H701.152C710.039 221.619 715.915 218.413 718.779 212C719.919 213.921 720.488 215.467 720.488 216.639C720.488 220.87 717.868 224.272 712.627 226.844C709.469 228.374 703.48 229.139 694.658 229.139H688.799Z" fill="#FF8484"/>
<path d="M740.752 258.924L734.648 289.686C733.997 292.68 733.672 294.812 733.672 296.082C733.672 296.766 733.867 297.612 734.258 298.621C730.97 300.281 727.992 301.111 725.322 301.111C723.597 301.111 722.734 300.428 722.734 299.061C722.734 298.377 723.06 296.359 723.711 293.006L730.498 258.924H728.496C723.711 258.924 718.763 260.258 713.652 262.928C715.02 258.989 716.826 256.336 719.072 254.969C721.318 253.602 724.964 252.918 730.01 252.918H731.719L736.748 227.576C733.883 227.999 731.214 228.211 728.74 228.211C723.597 228.211 720.553 224.826 719.609 218.055C721.953 220.008 725.111 220.984 729.082 220.984C734.258 220.984 740.768 220.48 748.613 219.471L741.924 252.918H767.607C770.7 239.018 773.955 228.699 777.373 221.961C779.261 218.283 780.97 215.955 782.5 214.979C784.03 214.002 787.041 213.351 791.533 213.025C792.087 212.96 792.917 212.895 794.023 212.83C786.309 221.684 780.84 235.047 777.617 252.918H778.496C781.035 252.918 784.193 251.762 787.969 249.451C787.188 255.766 784.046 258.924 778.545 258.924H776.396C775.42 264.002 774.932 269.357 774.932 274.988C774.932 284.363 777.812 289.051 783.574 289.051C785.951 289.051 788.587 288.042 791.484 286.023C790.996 292.469 786.764 295.691 778.789 295.691C769.447 295.691 764.775 288.562 764.775 274.305C764.775 269.487 765.329 264.36 766.436 258.924H740.752Z" fill="#FF8484"/>
<path d="M801.348 247.742C800.566 246.049 800.176 244.308 800.176 242.518C800.176 236.658 804.652 231.417 813.604 226.795C822.555 222.14 832.695 219.812 844.023 219.812C855.938 219.812 865.312 222.449 872.148 227.723C879.017 232.996 882.451 240.223 882.451 249.402C882.451 261.609 877.129 272.368 866.484 281.678C860.853 286.593 853.805 290.613 845.342 293.738C836.911 296.863 828.838 298.426 821.123 298.426C813.701 298.426 809.99 295.643 809.99 290.076C809.99 288.058 810.625 283.891 811.895 277.576L818.242 245.691C818.796 242.957 819.072 240.988 819.072 239.783C819.072 238.644 818.682 237.602 817.9 236.658C822.23 235.031 825.241 234.217 826.934 234.217C828.952 234.217 829.961 235.389 829.961 237.732C829.961 238.286 829.44 241.134 828.398 246.277L823.076 272.986C821.742 279.79 821.074 284.07 821.074 285.828C821.074 287.781 821.725 289.116 823.027 289.832C824.362 290.516 826.852 290.857 830.498 290.857C842.314 290.857 852.21 287.26 860.186 280.066C868.161 272.872 872.148 263.953 872.148 253.309C872.148 245.073 869.251 238.481 863.457 233.533C857.663 228.585 849.948 226.111 840.312 226.111C832.467 226.111 825.143 227.999 818.34 231.775C811.569 235.551 805.905 240.874 801.348 247.742Z" fill="#FF8484"/>
<path d="M905.059 269.861L904.082 271.717C899.98 279.367 897.93 285.291 897.93 289.49C897.93 290.727 898.402 291.932 899.346 293.104C898.564 293.364 896.807 293.999 894.072 295.008C892.803 295.464 891.598 295.691 890.459 295.691C888.18 295.691 887.041 294.601 887.041 292.42C887.041 287.895 889.857 280.994 895.488 271.717L897.002 269.227H894.512C889.173 269.227 885.039 270.057 882.109 271.717C883.639 266.215 887.757 263.465 894.463 263.465L900.518 263.611L901.836 261.658C906.947 253.976 914.759 243.641 925.273 230.652C928.822 226.258 931.475 223.523 933.232 222.449C934.99 221.375 938.392 220.398 943.438 219.52C942.493 225.379 942.021 230.831 942.021 235.877C942.021 249.256 943.568 262.814 946.66 276.551C948.353 284.103 950.941 288.969 954.424 291.15C951.364 294.178 948.743 295.691 946.562 295.691C941.419 295.691 937.448 286.87 934.648 269.227C929.277 269.812 923.857 270.105 918.389 270.105L905.059 269.861ZM908.574 264.1L918.438 264.344C925.176 264.344 930.335 264.116 933.916 263.66C932.419 252.234 931.67 242.762 931.67 235.242L931.719 231.58C930.645 232.947 928.236 235.91 924.492 240.467C917.721 248.768 912.757 256.01 909.6 262.195L908.574 264.1Z" fill="#FF8484"/>
<path d="M993.975 260.096L989.189 284.266C988.571 287.326 988.262 289.327 988.262 290.271C988.262 291.183 988.457 292.16 988.848 293.201C985.527 294.861 982.533 295.691 979.863 295.691C978.138 295.691 977.275 295.008 977.275 293.641C977.275 292.924 977.617 290.89 978.301 287.537L983.721 260.096C981.735 251.209 978.724 243.038 974.688 235.584C970.684 228.13 966.598 223.149 962.432 220.643C965.85 218.266 968.438 217.078 970.195 217.078C976.445 217.078 983.77 229.855 992.168 255.408C998.581 249.777 1004.2 243.934 1009.01 237.879C1013.86 231.824 1016.29 227.592 1016.29 225.184C1016.29 223.849 1015.75 222.677 1014.68 221.668C1017.44 220.431 1019.63 219.812 1021.22 219.812C1023.89 219.812 1025.22 221.229 1025.22 224.061C1025.22 227.218 1022 232.508 1015.56 239.93C1009.11 247.352 1001.92 254.074 993.975 260.096Z" fill="#FF8484"/>
<path d="M155.078 435.744C155.82 437.502 156.191 438.889 156.191 439.904C156.191 444.982 151.836 449.943 143.125 454.787C134.453 459.631 125.547 462.053 116.406 462.053C106.406 462.053 98.4961 459.143 92.6758 453.322C86.8945 447.502 84.0039 439.533 84.0039 429.416C84.0039 413.439 89.2383 399.709 99.707 388.225C110.176 376.74 122.695 370.998 137.266 370.998C143.203 370.998 148.203 372.053 152.266 374.162C156.328 376.271 158.359 378.85 158.359 381.896C158.359 384.631 156.602 387.639 153.086 390.92C148.359 381.467 141.66 376.74 132.988 376.74C123.496 376.74 115.215 381.682 108.145 391.564C101.074 401.408 97.5391 412.912 97.5391 426.076C97.5391 434.475 99.6484 441.135 103.867 446.057C108.125 450.939 113.867 453.381 121.094 453.381C133.438 453.381 144.766 447.502 155.078 435.744Z" fill="#FF8484"/>
<path d="M197.91 417.932L190.586 454.846C189.805 458.439 189.414 460.998 189.414 462.521C189.414 463.342 189.648 464.357 190.117 465.568C186.172 467.561 182.598 468.557 179.395 468.557C177.324 468.557 176.289 467.736 176.289 466.096C176.289 465.275 176.68 462.854 177.461 458.83L185.605 417.932H183.203C177.461 417.932 171.523 419.533 165.391 422.736C167.031 418.01 169.199 414.826 171.895 413.186C174.59 411.545 178.965 410.725 185.02 410.725H187.07L193.105 380.314C189.668 380.822 186.465 381.076 183.496 381.076C177.324 381.076 173.672 377.014 172.539 368.889C175.352 371.232 179.141 372.404 183.906 372.404C190.117 372.404 197.93 371.799 207.344 370.588L199.316 410.725H230.137C233.848 394.045 237.754 381.662 241.855 373.576C244.121 369.162 246.172 366.369 248.008 365.197C249.844 364.025 253.457 363.244 258.848 362.854C259.512 362.775 260.508 362.697 261.836 362.619C252.578 373.244 246.016 389.279 242.148 410.725H243.203C246.25 410.725 250.039 409.338 254.57 406.564C253.633 414.143 249.863 417.932 243.262 417.932H240.684C239.512 424.025 238.926 430.451 238.926 437.209C238.926 448.459 242.383 454.084 249.297 454.084C252.148 454.084 255.312 452.873 258.789 450.451C258.203 458.186 253.125 462.053 243.555 462.053C232.344 462.053 226.738 453.498 226.738 436.389C226.738 430.607 227.402 424.455 228.73 417.932H197.91Z" fill="#FF8484"/>
<path d="M291.133 431.057L289.961 433.283C285.039 442.463 282.578 449.572 282.578 454.611C282.578 456.096 283.145 457.541 284.277 458.947C283.34 459.26 281.23 460.021 277.949 461.232C276.426 461.779 274.98 462.053 273.613 462.053C270.879 462.053 269.512 460.744 269.512 458.127C269.512 452.697 272.891 444.416 279.648 433.283L281.465 430.295H278.477C272.07 430.295 267.109 431.291 263.594 433.283C265.43 426.682 270.371 423.381 278.418 423.381L285.684 423.557L287.266 421.213C293.398 411.994 302.773 399.592 315.391 384.006C319.648 378.732 322.832 375.451 324.941 374.162C327.051 372.873 331.133 371.701 337.188 370.646C336.055 377.678 335.488 384.221 335.488 390.275C335.488 406.33 337.344 422.6 341.055 439.084C343.086 448.146 346.191 453.986 350.371 456.604C346.699 460.236 343.555 462.053 340.938 462.053C334.766 462.053 330 451.467 326.641 430.295C320.195 430.998 313.691 431.35 307.129 431.35L291.133 431.057ZM295.352 424.143L307.188 424.436C315.273 424.436 321.465 424.162 325.762 423.615C323.965 409.904 323.066 398.537 323.066 389.514L323.125 385.119C321.836 386.76 318.945 390.314 314.453 395.783C306.328 405.744 300.371 414.436 296.582 421.857L295.352 424.143Z" fill="#FF8484"/>
<path d="M424.434 433.811C412.676 450.725 401.133 459.182 389.805 459.182C383.672 459.182 378.613 456.955 374.629 452.502C370.645 448.01 368.652 442.326 368.652 435.451C368.652 421.662 374.004 403.361 384.707 380.549C381.465 381.174 378.457 381.486 375.684 381.486C372.051 381.486 369.375 380.588 367.656 378.791C365.938 376.955 364.746 373.791 364.082 369.299C367.012 371.604 370.801 372.756 375.449 372.756C378.105 372.756 386.973 372.072 402.051 370.705C388.262 397.658 381.367 418.225 381.367 432.404C381.367 437.482 382.617 441.643 385.117 444.885C387.656 448.127 390.898 449.748 394.844 449.748C400.391 449.748 405.879 447.033 411.309 441.604C416.777 436.135 421.914 428.225 426.719 417.873C430.156 398.85 433.203 387.15 435.859 382.775C438.555 378.4 443.965 376.213 452.09 376.213C448.535 380.783 445.02 390.334 441.543 404.865C438.066 419.357 436.328 431.74 436.328 442.014C436.328 450.1 438.789 454.143 443.711 454.143C446.797 454.143 450.43 452.482 454.609 449.162C454.766 450.1 454.844 450.803 454.844 451.271C454.844 453.928 453.242 456.389 450.039 458.654C446.836 460.92 443.359 462.053 439.609 462.053C429.102 462.053 423.848 455.373 423.848 442.014C423.848 440.139 424.043 437.404 424.434 433.811Z" fill="#FF8484"/>
<path d="M464.219 404.514C463.281 402.482 462.812 400.393 462.812 398.244C462.812 391.213 468.184 384.924 478.926 379.377C489.668 373.791 501.836 370.998 515.43 370.998C529.727 370.998 540.977 374.162 549.18 380.49C557.422 386.818 561.543 395.49 561.543 406.506C561.543 421.154 555.156 434.064 542.383 445.236C535.625 451.135 527.168 455.959 517.012 459.709C506.895 463.459 497.207 465.334 487.949 465.334C479.043 465.334 474.59 461.994 474.59 455.314C474.59 452.893 475.352 447.893 476.875 440.314L484.492 402.053C485.156 398.771 485.488 396.408 485.488 394.963C485.488 393.596 485.02 392.346 484.082 391.213C489.277 389.26 492.891 388.283 494.922 388.283C497.344 388.283 498.555 389.689 498.555 392.502C498.555 393.166 497.93 396.584 496.68 402.756L490.293 434.807C488.691 442.971 487.891 448.107 487.891 450.217C487.891 452.561 488.672 454.162 490.234 455.021C491.836 455.842 494.824 456.252 499.199 456.252C513.379 456.252 525.254 451.936 534.824 443.303C544.395 434.67 549.18 423.967 549.18 411.193C549.18 401.311 545.703 393.4 538.75 387.463C531.797 381.525 522.539 378.557 510.977 378.557C501.562 378.557 492.773 380.822 484.609 385.354C476.484 389.885 469.688 396.271 464.219 404.514Z" fill="#FF8484"/>
<path d="M569.16 404.162C567.559 402.326 566.758 400.139 566.758 397.6C566.758 391.115 572.246 385.061 583.223 379.436C594.238 373.811 606.035 370.998 618.613 370.998C637.988 370.998 647.676 377.17 647.676 389.514C647.676 395.49 645.586 400.588 641.406 404.807C637.266 408.986 630.02 413.342 619.668 417.873C629.004 439.162 637.051 449.807 643.809 449.807C647.363 449.807 651.172 447.307 655.234 442.307C655.43 443.283 655.527 443.967 655.527 444.357C655.527 447.639 653.594 451.057 649.727 454.611C645.859 458.127 642.129 459.885 638.535 459.885C629.395 459.885 619.648 447.424 609.297 422.502C607.227 423.088 605.352 423.381 603.672 423.381C602.852 423.381 602.09 423.225 601.387 422.912C602.832 415.529 606.504 411.838 612.402 411.838C613.574 411.838 615.02 412.072 616.738 412.541C629.551 408.244 635.957 401.115 635.957 391.154C635.957 387.482 634.121 384.475 630.449 382.131C626.816 379.748 622.168 378.557 616.504 378.557C606.895 378.557 597.656 380.959 588.789 385.764C579.922 390.529 573.379 396.662 569.16 404.162ZM590.254 465.568C586.27 467.561 582.656 468.557 579.414 468.557C577.383 468.557 576.367 467.736 576.367 466.096C576.367 465.236 576.816 462.795 577.715 458.771L588.965 402.053C589.629 398.771 589.961 396.408 589.961 394.963C589.961 393.596 589.492 392.346 588.555 391.213C593.75 389.26 597.363 388.283 599.395 388.283C601.855 388.283 603.086 389.689 603.086 392.502C603.086 393.166 602.441 396.584 601.152 402.756L590.781 454.846C590.039 458.479 589.668 461.037 589.668 462.521C589.668 463.342 589.863 464.357 590.254 465.568Z" fill="#FF8484"/>
<path d="M690.742 416.525L687.754 431.584C686.504 437.834 685.879 442.268 685.879 444.885C685.879 450.08 690.918 452.678 700.996 452.678C710.996 452.678 719.805 450.9 727.422 447.346C725.664 453.205 722.754 456.818 718.691 458.186C716.23 459.006 711.953 459.846 705.859 460.705C699.766 461.604 695.078 462.053 691.797 462.053C679.023 462.053 672.637 457.814 672.637 449.338C672.637 447.072 673.262 442.717 674.512 436.271L678.438 416.525H677.559C673.613 416.525 669.785 417.385 666.074 419.104C668.223 414.885 669.98 412.189 671.348 411.018C672.754 409.846 674.961 409.26 677.969 409.26H679.902L685.645 380.373H683.945C676.719 380.373 670.02 382.678 663.848 387.287C665.801 381.037 668.477 377.014 671.875 375.217C674.531 373.85 682.715 373.166 696.426 373.166H713.887C724.902 373.166 733.848 372.072 740.723 369.885C737.637 374.768 734.883 377.736 732.461 378.791C730.078 379.846 724.883 380.373 716.875 380.373H697.949L692.148 409.26H704.277C712.754 409.26 719.512 408.186 724.551 406.037C721.895 410.998 719.531 413.986 717.461 415.002C715.391 416.018 710.527 416.525 702.871 416.525H690.742Z" fill="#FF8484"/>
<path d="M774.473 419.338L768.73 448.342C767.988 452.014 767.617 454.416 767.617 455.549C767.617 456.643 767.852 457.814 768.32 459.064C764.336 461.057 760.742 462.053 757.539 462.053C755.469 462.053 754.434 461.232 754.434 459.592C754.434 458.732 754.844 456.291 755.664 452.268L762.168 419.338C759.785 408.674 756.172 398.869 751.328 389.924C746.523 380.979 741.621 375.002 736.621 371.994C740.723 369.143 743.828 367.717 745.938 367.717C753.438 367.717 762.227 383.049 772.305 413.713C780 406.955 786.738 399.943 792.52 392.678C798.34 385.412 801.25 380.334 801.25 377.443C801.25 375.842 800.605 374.436 799.316 373.225C802.637 371.74 805.254 370.998 807.168 370.998C810.371 370.998 811.973 372.697 811.973 376.096C811.973 379.885 808.105 386.232 800.371 395.139C792.637 404.045 784.004 412.111 774.473 419.338Z" fill="#FF8484"/>
<path d="M840.332 436.271C839.746 436.389 838.711 436.604 837.227 436.916C836.641 437.033 835.996 437.092 835.293 437.092C831.973 437.092 830.312 435.549 830.312 432.463C830.312 430.705 830.664 428.127 831.367 424.729L832.539 418.811C835.391 404.592 836.816 391.447 836.816 379.377C836.816 378.166 836.66 376.799 836.348 375.275C839.824 373.869 842.129 373.166 843.262 373.166C847.129 373.166 849.062 375.236 849.062 379.377C849.062 383.049 847.52 391.35 844.434 404.279C843.027 410.178 841.953 415.021 841.211 418.811L840.391 422.854C839.805 425.783 839.512 428.576 839.512 431.232C839.512 432.951 839.785 434.631 840.332 436.271ZM824.629 445.822L828.848 445.002C831.66 444.455 833.711 444.182 835 444.182C838.398 444.182 840.098 445.959 840.098 449.514C840.098 450.92 839.902 452.619 839.512 454.611L838.75 458.596L836.055 459.064C832.227 459.768 829.941 460.119 829.199 460.119C826.426 460.119 825.039 458.674 825.039 455.783C825.039 455.002 825.117 454.24 825.273 453.498L825.566 451.975C825.723 451.311 825.801 450.607 825.801 449.865C825.801 448.264 825.41 446.916 824.629 445.822Z" fill="#FF8484"/>
<path d="M886.387 436.271C885.801 436.389 884.766 436.604 883.281 436.916C882.695 437.033 882.051 437.092 881.348 437.092C878.027 437.092 876.367 435.549 876.367 432.463C876.367 430.705 876.719 428.127 877.422 424.729L878.594 418.811C881.445 404.592 882.871 391.447 882.871 379.377C882.871 378.166 882.715 376.799 882.402 375.275C885.879 373.869 888.184 373.166 889.316 373.166C893.184 373.166 895.117 375.236 895.117 379.377C895.117 383.049 893.574 391.35 890.488 404.279C889.082 410.178 888.008 415.021 887.266 418.811L886.445 422.854C885.859 425.783 885.566 428.576 885.566 431.232C885.566 432.951 885.84 434.631 886.387 436.271ZM870.684 445.822L874.902 445.002C877.715 444.455 879.766 444.182 881.055 444.182C884.453 444.182 886.152 445.959 886.152 449.514C886.152 450.92 885.957 452.619 885.566 454.611L884.805 458.596L882.109 459.064C878.281 459.768 875.996 460.119 875.254 460.119C872.48 460.119 871.094 458.674 871.094 455.783C871.094 455.002 871.172 454.24 871.328 453.498L871.621 451.975C871.777 451.311 871.855 450.607 871.855 449.865C871.855 448.264 871.465 446.916 870.684 445.822Z" fill="#FF8484"/>
<path d="M932.441 436.271C931.855 436.389 930.82 436.604 929.336 436.916C928.75 437.033 928.105 437.092 927.402 437.092C924.082 437.092 922.422 435.549 922.422 432.463C922.422 430.705 922.773 428.127 923.477 424.729L924.648 418.811C927.5 404.592 928.926 391.447 928.926 379.377C928.926 378.166 928.77 376.799 928.457 375.275C931.934 373.869 934.238 373.166 935.371 373.166C939.238 373.166 941.172 375.236 941.172 379.377C941.172 383.049 939.629 391.35 936.543 404.279C935.137 410.178 934.062 415.021 933.32 418.811L932.5 422.854C931.914 425.783 931.621 428.576 931.621 431.232C931.621 432.951 931.895 434.631 932.441 436.271ZM916.738 445.822L920.957 445.002C923.77 444.455 925.82 444.182 927.109 444.182C930.508 444.182 932.207 445.959 932.207 449.514C932.207 450.92 932.012 452.619 931.621 454.611L930.859 458.596L928.164 459.064C924.336 459.768 922.051 460.119 921.309 460.119C918.535 460.119 917.148 458.674 917.148 455.783C917.148 455.002 917.227 454.24 917.383 453.498L917.676 451.975C917.832 451.311 917.91 450.607 917.91 449.865C917.91 448.264 917.52 446.916 916.738 445.822Z" fill="#FF8484"/>
<path d="M72.0996 258.924L65.9961 289.686C65.3451 292.68 65.0195 294.812 65.0195 296.082C65.0195 296.766 65.2148 297.612 65.6055 298.621C62.3177 300.281 59.3392 301.111 56.6699 301.111C54.9447 301.111 54.082 300.428 54.082 299.061C54.082 298.377 54.4076 296.359 55.0586 293.006L61.8457 258.924H59.8438C55.0586 258.924 50.1107 260.258 45 262.928C46.3672 258.989 48.1738 256.336 50.4199 254.969C52.666 253.602 56.3118 252.918 61.3574 252.918H63.0664L68.0957 227.576C65.2311 227.999 62.5618 228.211 60.0879 228.211C54.9447 228.211 51.901 224.826 50.957 218.055C53.3008 220.008 56.4583 220.984 60.4297 220.984C65.6055 220.984 72.1159 220.48 79.9609 219.471L73.2715 252.918H98.9551C102.048 239.018 105.303 228.699 108.721 221.961C110.609 218.283 112.318 215.955 113.848 214.979C115.378 214.002 118.389 213.351 122.881 213.025C123.434 212.96 124.264 212.895 125.371 212.83C117.656 221.684 112.188 235.047 108.965 252.918H109.844C112.383 252.918 115.54 251.762 119.316 249.451C118.535 255.766 115.394 258.924 109.893 258.924H107.744C106.768 264.002 106.279 269.357 106.279 274.988C106.279 284.363 109.16 289.051 114.922 289.051C117.298 289.051 119.935 288.042 122.832 286.023C122.344 292.469 118.112 295.691 110.137 295.691C100.794 295.691 96.123 288.562 96.123 274.305C96.123 269.487 96.6764 264.36 97.7832 258.924H72.0996Z" stroke="#FF7B7B" stroke-width="4" mask="url(#path-11-outside-1)"/>
<path d="M149.785 269.861L148.809 271.717C144.707 279.367 142.656 285.291 142.656 289.49C142.656 290.727 143.128 291.932 144.072 293.104C143.291 293.364 141.533 293.999 138.799 295.008C137.529 295.464 136.325 295.691 135.186 295.691C132.907 295.691 131.768 294.601 131.768 292.42C131.768 287.895 134.583 280.994 140.215 271.717L141.729 269.227H139.238C133.9 269.227 129.766 270.057 126.836 271.717C128.366 266.215 132.484 263.465 139.189 263.465L145.244 263.611L146.562 261.658C151.673 253.976 159.486 243.641 170 230.652C173.548 226.258 176.201 223.523 177.959 222.449C179.717 221.375 183.118 220.398 188.164 219.52C187.22 225.379 186.748 230.831 186.748 235.877C186.748 249.256 188.294 262.814 191.387 276.551C193.079 284.103 195.667 288.969 199.15 291.15C196.09 294.178 193.47 295.691 191.289 295.691C186.146 295.691 182.174 286.87 179.375 269.227C174.004 269.812 168.584 270.105 163.115 270.105L149.785 269.861ZM153.301 264.1L163.164 264.344C169.902 264.344 175.062 264.116 178.643 263.66C177.145 252.234 176.396 242.762 176.396 235.242L176.445 231.58C175.371 232.947 172.962 235.91 169.219 240.467C162.448 248.768 157.484 256.01 154.326 262.195L153.301 264.1Z" stroke="#FF7B7B" stroke-width="4" mask="url(#path-11-outside-1)"/>
<path d="M232.305 268.25L228.008 289.686C227.389 292.778 227.08 294.78 227.08 295.691C227.08 296.603 227.292 297.579 227.715 298.621C224.362 300.281 221.351 301.111 218.682 301.111C216.989 301.111 216.143 300.428 216.143 299.061C216.143 298.344 216.468 296.31 217.119 292.957L222.246 267.371C214.01 265.516 209.893 262.781 209.893 259.168C209.893 258.419 210.055 257.459 210.381 256.287C213.896 259.184 218.161 261.284 223.174 262.586L226.543 245.691C227.096 242.924 227.373 240.955 227.373 239.783C227.373 238.644 226.982 237.602 226.201 236.658C230.531 235.031 233.542 234.217 235.234 234.217C237.253 234.217 238.262 235.389 238.262 237.732C238.262 238.286 237.725 241.134 236.65 246.277L233.232 263.465C242.607 263.465 250.273 261.154 256.23 256.531C262.188 251.909 265.166 245.984 265.166 238.758C265.166 234.786 263.604 231.596 260.479 229.188C257.386 226.746 253.285 225.525 248.174 225.525C232.939 225.525 220.716 231.906 211.504 244.666C210.723 242.648 210.332 241.069 210.332 239.93C210.332 235.014 214.727 230.441 223.516 226.209C232.337 221.945 241.875 219.812 252.129 219.812C267.689 219.812 275.469 225.542 275.469 237C275.469 245.366 271.416 252.674 263.311 258.924C255.238 265.174 245.798 268.299 234.99 268.299L232.305 268.25Z" stroke="#FF7B7B" stroke-width="4" mask="url(#path-11-outside-1)"/>
<path d="M300.957 268.25L296.66 289.686C296.042 292.778 295.732 294.78 295.732 295.691C295.732 296.603 295.944 297.579 296.367 298.621C293.014 300.281 290.003 301.111 287.334 301.111C285.641 301.111 284.795 300.428 284.795 299.061C284.795 298.344 285.12 296.31 285.771 292.957L290.898 267.371C282.663 265.516 278.545 262.781 278.545 259.168C278.545 258.419 278.708 257.459 279.033 256.287C282.549 259.184 286.813 261.284 291.826 262.586L295.195 245.691C295.749 242.924 296.025 240.955 296.025 239.783C296.025 238.644 295.635 237.602 294.854 236.658C299.183 235.031 302.194 234.217 303.887 234.217C305.905 234.217 306.914 235.389 306.914 237.732C306.914 238.286 306.377 241.134 305.303 246.277L301.885 263.465C311.26 263.465 318.926 261.154 324.883 256.531C330.84 251.909 333.818 245.984 333.818 238.758C333.818 234.786 332.256 231.596 329.131 229.188C326.038 226.746 321.937 225.525 316.826 225.525C301.592 225.525 289.368 231.906 280.156 244.666C279.375 242.648 278.984 241.069 278.984 239.93C278.984 235.014 283.379 230.441 292.168 226.209C300.99 221.945 310.527 219.812 320.781 219.812C336.341 219.812 344.121 225.542 344.121 237C344.121 245.366 340.068 252.674 331.963 258.924C323.89 265.174 314.45 268.299 303.643 268.299L300.957 268.25Z" stroke="#FF7B7B" stroke-width="4" mask="url(#path-11-outside-1)"/>
<path d="M376.006 260.096L371.221 284.266C370.602 287.326 370.293 289.327 370.293 290.271C370.293 291.183 370.488 292.16 370.879 293.201C367.559 294.861 364.564 295.691 361.895 295.691C360.169 295.691 359.307 295.008 359.307 293.641C359.307 292.924 359.648 290.89 360.332 287.537L365.752 260.096C363.766 251.209 360.755 243.038 356.719 235.584C352.715 228.13 348.63 223.149 344.463 220.643C347.881 218.266 350.469 217.078 352.227 217.078C358.477 217.078 365.801 229.855 374.199 255.408C380.612 249.777 386.227 243.934 391.045 237.879C395.895 231.824 398.32 227.592 398.32 225.184C398.32 223.849 397.783 222.677 396.709 221.668C399.476 220.431 401.657 219.812 403.252 219.812C405.921 219.812 407.256 221.229 407.256 224.061C407.256 227.218 404.033 232.508 397.588 239.93C391.143 247.352 383.949 254.074 376.006 260.096Z" stroke="#FF7B7B" stroke-width="4" mask="url(#path-11-outside-1)"/>
<path d="M438.457 247.254C437.611 245.464 437.188 243.771 437.188 242.176C437.188 236.577 441.712 231.45 450.762 226.795C459.844 222.14 469.805 219.812 480.645 219.812C486.699 219.812 491.582 220.968 495.293 223.279C499.036 225.59 500.908 228.618 500.908 232.361C500.908 239.295 495.977 245.805 486.113 251.893C491.875 253.455 496.383 255.815 499.639 258.973C502.926 262.13 504.57 265.711 504.57 269.715C504.57 277.592 500.29 284.298 491.729 289.832C483.167 295.366 472.799 298.133 460.625 298.133C451.673 298.133 447.197 295.317 447.197 289.686C447.197 288.351 447.686 285.226 448.662 280.311L455.547 245.691C456.1 242.924 456.377 240.955 456.377 239.783C456.377 238.644 455.986 237.602 455.205 236.658C459.502 235.031 462.513 234.217 464.238 234.217C466.257 234.217 467.266 235.372 467.266 237.684C467.266 238.27 466.729 241.134 465.654 246.277L459.258 278.357C458.542 282.068 458.184 284.493 458.184 285.633C458.184 289.734 462.09 291.785 469.902 291.785C476.315 291.785 481.8 289.946 486.357 286.268C490.947 282.557 493.242 278.113 493.242 272.938C493.242 268.901 491.973 265.743 489.434 263.465C486.895 261.186 482.663 259.428 476.738 258.191C474.622 259.038 472.311 259.461 469.805 259.461C468.958 259.461 467.9 259.314 466.631 259.021C467.575 255.538 468.747 253.195 470.146 251.99C471.579 250.786 473.874 250.184 477.031 250.184C477.845 250.184 478.936 250.232 480.303 250.33C487.236 245.252 490.703 240.223 490.703 235.242C490.703 229.35 486.211 226.404 477.227 226.404C462.676 226.404 449.753 233.354 438.457 247.254Z" stroke="#FF7B7B" stroke-width="4" mask="url(#path-11-outside-1)"/>
<path d="M549.395 226.795L537.334 287.488C543.551 286.674 547.962 286.268 550.566 286.268C554.798 286.268 556.914 289.214 556.914 295.105C554.538 294.292 552.031 293.885 549.395 293.885C546.855 293.885 543.747 294.129 540.068 294.617L528.936 296.082C524.964 296.635 522.181 296.912 520.586 296.912C517.852 296.912 515.915 296.261 514.775 294.959C513.636 293.657 512.952 291.281 512.725 287.83C515.036 289.1 517.445 289.734 519.951 289.734C521.318 289.734 523.597 289.49 526.787 289.002L538.896 228.26C535.381 228.846 532.337 229.139 529.766 229.139C525.273 229.139 523.027 226.502 523.027 221.229C524.297 222.075 525.892 222.498 527.812 222.498C530.156 222.498 533.574 222.075 538.066 221.229L545.781 219.764C551.152 218.787 555.254 218.299 558.086 218.299C562.48 218.299 565.02 221.245 565.703 227.137C563.88 226.258 561.976 225.818 559.99 225.818C557.484 225.818 554.668 226.046 551.543 226.502C551.055 226.6 550.339 226.697 549.395 226.795Z" stroke="#FF7B7B" stroke-width="4" mask="url(#path-11-outside-1)"/>
<path d="M569.17 247.449C567.835 245.919 567.168 244.096 567.168 241.98C567.168 236.577 571.742 231.531 580.889 226.844C590.068 222.156 599.899 219.812 610.381 219.812C626.527 219.812 634.6 224.956 634.6 235.242C634.6 240.223 632.858 244.471 629.375 247.986C625.924 251.469 619.886 255.099 611.26 258.875C619.04 276.616 625.745 285.486 631.377 285.486C634.339 285.486 637.513 283.403 640.898 279.236C641.061 280.05 641.143 280.62 641.143 280.945C641.143 283.68 639.531 286.528 636.309 289.49C633.086 292.42 629.977 293.885 626.982 293.885C619.365 293.885 611.243 283.501 602.617 262.732C600.892 263.221 599.329 263.465 597.93 263.465C597.246 263.465 596.611 263.335 596.025 263.074C597.23 256.922 600.29 253.846 605.205 253.846C606.182 253.846 607.386 254.041 608.818 254.432C619.495 250.851 624.834 244.91 624.834 236.609C624.834 233.549 623.304 231.043 620.244 229.09C617.217 227.104 613.343 226.111 608.623 226.111C600.615 226.111 592.917 228.113 585.527 232.117C578.138 236.089 572.686 241.199 569.17 247.449ZM586.748 298.621C583.428 300.281 580.417 301.111 577.715 301.111C576.022 301.111 575.176 300.428 575.176 299.061C575.176 298.344 575.55 296.31 576.299 292.957L585.674 245.691C586.227 242.957 586.504 240.988 586.504 239.783C586.504 238.644 586.113 237.602 585.332 236.658C589.661 235.031 592.673 234.217 594.365 234.217C596.416 234.217 597.441 235.389 597.441 237.732C597.441 238.286 596.904 241.134 595.83 246.277L587.188 289.686C586.569 292.713 586.26 294.845 586.26 296.082C586.26 296.766 586.423 297.612 586.748 298.621Z" stroke="#FF7B7B" stroke-width="4" mask="url(#path-11-outside-1)"/>
<path d="M688.799 229.139L677.812 284.266C677.194 287.326 676.885 289.327 676.885 290.271C676.885 291.183 677.096 292.16 677.52 293.201C674.167 294.861 671.156 295.691 668.486 295.691C666.794 295.691 665.947 295.008 665.947 293.641C665.947 292.957 666.273 290.939 666.924 287.586L678.545 229.139H671.758C664.043 229.139 657.386 229.871 651.787 231.336C652.861 227.007 654.31 224.305 656.133 223.23C657.956 222.156 661.943 221.619 668.096 221.619H701.152C710.039 221.619 715.915 218.413 718.779 212C719.919 213.921 720.488 215.467 720.488 216.639C720.488 220.87 717.868 224.272 712.627 226.844C709.469 228.374 703.48 229.139 694.658 229.139H688.799Z" stroke="#FF7B7B" stroke-width="4" mask="url(#path-11-outside-1)"/>
<path d="M740.752 258.924L734.648 289.686C733.997 292.68 733.672 294.812 733.672 296.082C733.672 296.766 733.867 297.612 734.258 298.621C730.97 300.281 727.992 301.111 725.322 301.111C723.597 301.111 722.734 300.428 722.734 299.061C722.734 298.377 723.06 296.359 723.711 293.006L730.498 258.924H728.496C723.711 258.924 718.763 260.258 713.652 262.928C715.02 258.989 716.826 256.336 719.072 254.969C721.318 253.602 724.964 252.918 730.01 252.918H731.719L736.748 227.576C733.883 227.999 731.214 228.211 728.74 228.211C723.597 228.211 720.553 224.826 719.609 218.055C721.953 220.008 725.111 220.984 729.082 220.984C734.258 220.984 740.768 220.48 748.613 219.471L741.924 252.918H767.607C770.7 239.018 773.955 228.699 777.373 221.961C779.261 218.283 780.97 215.955 782.5 214.979C784.03 214.002 787.041 213.351 791.533 213.025C792.087 212.96 792.917 212.895 794.023 212.83C786.309 221.684 780.84 235.047 777.617 252.918H778.496C781.035 252.918 784.193 251.762 787.969 249.451C787.188 255.766 784.046 258.924 778.545 258.924H776.396C775.42 264.002 774.932 269.357 774.932 274.988C774.932 284.363 777.812 289.051 783.574 289.051C785.951 289.051 788.587 288.042 791.484 286.023C790.996 292.469 786.764 295.691 778.789 295.691C769.447 295.691 764.775 288.562 764.775 274.305C764.775 269.487 765.329 264.36 766.436 258.924H740.752Z" stroke="#FF7B7B" stroke-width="4" mask="url(#path-11-outside-1)"/>
<path d="M801.348 247.742C800.566 246.049 800.176 244.308 800.176 242.518C800.176 236.658 804.652 231.417 813.604 226.795C822.555 222.14 832.695 219.812 844.023 219.812C855.938 219.812 865.312 222.449 872.148 227.723C879.017 232.996 882.451 240.223 882.451 249.402C882.451 261.609 877.129 272.368 866.484 281.678C860.853 286.593 853.805 290.613 845.342 293.738C836.911 296.863 828.838 298.426 821.123 298.426C813.701 298.426 809.99 295.643 809.99 290.076C809.99 288.058 810.625 283.891 811.895 277.576L818.242 245.691C818.796 242.957 819.072 240.988 819.072 239.783C819.072 238.644 818.682 237.602 817.9 236.658C822.23 235.031 825.241 234.217 826.934 234.217C828.952 234.217 829.961 235.389 829.961 237.732C829.961 238.286 829.44 241.134 828.398 246.277L823.076 272.986C821.742 279.79 821.074 284.07 821.074 285.828C821.074 287.781 821.725 289.116 823.027 289.832C824.362 290.516 826.852 290.857 830.498 290.857C842.314 290.857 852.21 287.26 860.186 280.066C868.161 272.872 872.148 263.953 872.148 253.309C872.148 245.073 869.251 238.481 863.457 233.533C857.663 228.585 849.948 226.111 840.312 226.111C832.467 226.111 825.143 227.999 818.34 231.775C811.569 235.551 805.905 240.874 801.348 247.742Z" stroke="#FF7B7B" stroke-width="4" mask="url(#path-11-outside-1)"/>
<path d="M905.059 269.861L904.082 271.717C899.98 279.367 897.93 285.291 897.93 289.49C897.93 290.727 898.402 291.932 899.346 293.104C898.564 293.364 896.807 293.999 894.072 295.008C892.803 295.464 891.598 295.691 890.459 295.691C888.18 295.691 887.041 294.601 887.041 292.42C887.041 287.895 889.857 280.994 895.488 271.717L897.002 269.227H894.512C889.173 269.227 885.039 270.057 882.109 271.717C883.639 266.215 887.757 263.465 894.463 263.465L900.518 263.611L901.836 261.658C906.947 253.976 914.759 243.641 925.273 230.652C928.822 226.258 931.475 223.523 933.232 222.449C934.99 221.375 938.392 220.398 943.438 219.52C942.493 225.379 942.021 230.831 942.021 235.877C942.021 249.256 943.568 262.814 946.66 276.551C948.353 284.103 950.941 288.969 954.424 291.15C951.364 294.178 948.743 295.691 946.562 295.691C941.419 295.691 937.448 286.87 934.648 269.227C929.277 269.812 923.857 270.105 918.389 270.105L905.059 269.861ZM908.574 264.1L918.438 264.344C925.176 264.344 930.335 264.116 933.916 263.66C932.419 252.234 931.67 242.762 931.67 235.242L931.719 231.58C930.645 232.947 928.236 235.91 924.492 240.467C917.721 248.768 912.757 256.01 909.6 262.195L908.574 264.1Z" stroke="#FF7B7B" stroke-width="4" mask="url(#path-11-outside-1)"/>
<path d="M993.975 260.096L989.189 284.266C988.571 287.326 988.262 289.327 988.262 290.271C988.262 291.183 988.457 292.16 988.848 293.201C985.527 294.861 982.533 295.691 979.863 295.691C978.138 295.691 977.275 295.008 977.275 293.641C977.275 292.924 977.617 290.89 978.301 287.537L983.721 260.096C981.735 251.209 978.724 243.038 974.688 235.584C970.684 228.13 966.598 223.149 962.432 220.643C965.85 218.266 968.438 217.078 970.195 217.078C976.445 217.078 983.77 229.855 992.168 255.408C998.581 249.777 1004.2 243.934 1009.01 237.879C1013.86 231.824 1016.29 227.592 1016.29 225.184C1016.29 223.849 1015.75 222.677 1014.68 221.668C1017.44 220.431 1019.63 219.812 1021.22 219.812C1023.89 219.812 1025.22 221.229 1025.22 224.061C1025.22 227.218 1022 232.508 1015.56 239.93C1009.11 247.352 1001.92 254.074 993.975 260.096Z" stroke="#FF7B7B" stroke-width="4" mask="url(#path-11-outside-1)"/>
<path d="M155.078 435.744C155.82 437.502 156.191 438.889 156.191 439.904C156.191 444.982 151.836 449.943 143.125 454.787C134.453 459.631 125.547 462.053 116.406 462.053C106.406 462.053 98.4961 459.143 92.6758 453.322C86.8945 447.502 84.0039 439.533 84.0039 429.416C84.0039 413.439 89.2383 399.709 99.707 388.225C110.176 376.74 122.695 370.998 137.266 370.998C143.203 370.998 148.203 372.053 152.266 374.162C156.328 376.271 158.359 378.85 158.359 381.896C158.359 384.631 156.602 387.639 153.086 390.92C148.359 381.467 141.66 376.74 132.988 376.74C123.496 376.74 115.215 381.682 108.145 391.564C101.074 401.408 97.5391 412.912 97.5391 426.076C97.5391 434.475 99.6484 441.135 103.867 446.057C108.125 450.939 113.867 453.381 121.094 453.381C133.438 453.381 144.766 447.502 155.078 435.744Z" stroke="#FF7B7B" stroke-width="4" mask="url(#path-11-outside-1)"/>
<path d="M197.91 417.932L190.586 454.846C189.805 458.439 189.414 460.998 189.414 462.521C189.414 463.342 189.648 464.357 190.117 465.568C186.172 467.561 182.598 468.557 179.395 468.557C177.324 468.557 176.289 467.736 176.289 466.096C176.289 465.275 176.68 462.854 177.461 458.83L185.605 417.932H183.203C177.461 417.932 171.523 419.533 165.391 422.736C167.031 418.01 169.199 414.826 171.895 413.186C174.59 411.545 178.965 410.725 185.02 410.725H187.07L193.105 380.314C189.668 380.822 186.465 381.076 183.496 381.076C177.324 381.076 173.672 377.014 172.539 368.889C175.352 371.232 179.141 372.404 183.906 372.404C190.117 372.404 197.93 371.799 207.344 370.588L199.316 410.725H230.137C233.848 394.045 237.754 381.662 241.855 373.576C244.121 369.162 246.172 366.369 248.008 365.197C249.844 364.025 253.457 363.244 258.848 362.854C259.512 362.775 260.508 362.697 261.836 362.619C252.578 373.244 246.016 389.279 242.148 410.725H243.203C246.25 410.725 250.039 409.338 254.57 406.564C253.633 414.143 249.863 417.932 243.262 417.932H240.684C239.512 424.025 238.926 430.451 238.926 437.209C238.926 448.459 242.383 454.084 249.297 454.084C252.148 454.084 255.312 452.873 258.789 450.451C258.203 458.186 253.125 462.053 243.555 462.053C232.344 462.053 226.738 453.498 226.738 436.389C226.738 430.607 227.402 424.455 228.73 417.932H197.91Z" stroke="#FF7B7B" stroke-width="4" mask="url(#path-11-outside-1)"/>
<path d="M291.133 431.057L289.961 433.283C285.039 442.463 282.578 449.572 282.578 454.611C282.578 456.096 283.145 457.541 284.277 458.947C283.34 459.26 281.23 460.021 277.949 461.232C276.426 461.779 274.98 462.053 273.613 462.053C270.879 462.053 269.512 460.744 269.512 458.127C269.512 452.697 272.891 444.416 279.648 433.283L281.465 430.295H278.477C272.07 430.295 267.109 431.291 263.594 433.283C265.43 426.682 270.371 423.381 278.418 423.381L285.684 423.557L287.266 421.213C293.398 411.994 302.773 399.592 315.391 384.006C319.648 378.732 322.832 375.451 324.941 374.162C327.051 372.873 331.133 371.701 337.188 370.646C336.055 377.678 335.488 384.221 335.488 390.275C335.488 406.33 337.344 422.6 341.055 439.084C343.086 448.146 346.191 453.986 350.371 456.604C346.699 460.236 343.555 462.053 340.938 462.053C334.766 462.053 330 451.467 326.641 430.295C320.195 430.998 313.691 431.35 307.129 431.35L291.133 431.057ZM295.352 424.143L307.188 424.436C315.273 424.436 321.465 424.162 325.762 423.615C323.965 409.904 323.066 398.537 323.066 389.514L323.125 385.119C321.836 386.76 318.945 390.314 314.453 395.783C306.328 405.744 300.371 414.436 296.582 421.857L295.352 424.143Z" stroke="#FF7B7B" stroke-width="4" mask="url(#path-11-outside-1)"/>
<path d="M424.434 433.811C412.676 450.725 401.133 459.182 389.805 459.182C383.672 459.182 378.613 456.955 374.629 452.502C370.645 448.01 368.652 442.326 368.652 435.451C368.652 421.662 374.004 403.361 384.707 380.549C381.465 381.174 378.457 381.486 375.684 381.486C372.051 381.486 369.375 380.588 367.656 378.791C365.938 376.955 364.746 373.791 364.082 369.299C367.012 371.604 370.801 372.756 375.449 372.756C378.105 372.756 386.973 372.072 402.051 370.705C388.262 397.658 381.367 418.225 381.367 432.404C381.367 437.482 382.617 441.643 385.117 444.885C387.656 448.127 390.898 449.748 394.844 449.748C400.391 449.748 405.879 447.033 411.309 441.604C416.777 436.135 421.914 428.225 426.719 417.873C430.156 398.85 433.203 387.15 435.859 382.775C438.555 378.4 443.965 376.213 452.09 376.213C448.535 380.783 445.02 390.334 441.543 404.865C438.066 419.357 436.328 431.74 436.328 442.014C436.328 450.1 438.789 454.143 443.711 454.143C446.797 454.143 450.43 452.482 454.609 449.162C454.766 450.1 454.844 450.803 454.844 451.271C454.844 453.928 453.242 456.389 450.039 458.654C446.836 460.92 443.359 462.053 439.609 462.053C429.102 462.053 423.848 455.373 423.848 442.014C423.848 440.139 424.043 437.404 424.434 433.811Z" stroke="#FF7B7B" stroke-width="4" mask="url(#path-11-outside-1)"/>
<path d="M464.219 404.514C463.281 402.482 462.812 400.393 462.812 398.244C462.812 391.213 468.184 384.924 478.926 379.377C489.668 373.791 501.836 370.998 515.43 370.998C529.727 370.998 540.977 374.162 549.18 380.49C557.422 386.818 561.543 395.49 561.543 406.506C561.543 421.154 555.156 434.064 542.383 445.236C535.625 451.135 527.168 455.959 517.012 459.709C506.895 463.459 497.207 465.334 487.949 465.334C479.043 465.334 474.59 461.994 474.59 455.314C474.59 452.893 475.352 447.893 476.875 440.314L484.492 402.053C485.156 398.771 485.488 396.408 485.488 394.963C485.488 393.596 485.02 392.346 484.082 391.213C489.277 389.26 492.891 388.283 494.922 388.283C497.344 388.283 498.555 389.689 498.555 392.502C498.555 393.166 497.93 396.584 496.68 402.756L490.293 434.807C488.691 442.971 487.891 448.107 487.891 450.217C487.891 452.561 488.672 454.162 490.234 455.021C491.836 455.842 494.824 456.252 499.199 456.252C513.379 456.252 525.254 451.936 534.824 443.303C544.395 434.67 549.18 423.967 549.18 411.193C549.18 401.311 545.703 393.4 538.75 387.463C531.797 381.525 522.539 378.557 510.977 378.557C501.562 378.557 492.773 380.822 484.609 385.354C476.484 389.885 469.688 396.271 464.219 404.514Z" stroke="#FF7B7B" stroke-width="4" mask="url(#path-11-outside-1)"/>
<path d="M569.16 404.162C567.559 402.326 566.758 400.139 566.758 397.6C566.758 391.115 572.246 385.061 583.223 379.436C594.238 373.811 606.035 370.998 618.613 370.998C637.988 370.998 647.676 377.17 647.676 389.514C647.676 395.49 645.586 400.588 641.406 404.807C637.266 408.986 630.02 413.342 619.668 417.873C629.004 439.162 637.051 449.807 643.809 449.807C647.363 449.807 651.172 447.307 655.234 442.307C655.43 443.283 655.527 443.967 655.527 444.357C655.527 447.639 653.594 451.057 649.727 454.611C645.859 458.127 642.129 459.885 638.535 459.885C629.395 459.885 619.648 447.424 609.297 422.502C607.227 423.088 605.352 423.381 603.672 423.381C602.852 423.381 602.09 423.225 601.387 422.912C602.832 415.529 606.504 411.838 612.402 411.838C613.574 411.838 615.02 412.072 616.738 412.541C629.551 408.244 635.957 401.115 635.957 391.154C635.957 387.482 634.121 384.475 630.449 382.131C626.816 379.748 622.168 378.557 616.504 378.557C606.895 378.557 597.656 380.959 588.789 385.764C579.922 390.529 573.379 396.662 569.16 404.162ZM590.254 465.568C586.27 467.561 582.656 468.557 579.414 468.557C577.383 468.557 576.367 467.736 576.367 466.096C576.367 465.236 576.816 462.795 577.715 458.771L588.965 402.053C589.629 398.771 589.961 396.408 589.961 394.963C589.961 393.596 589.492 392.346 588.555 391.213C593.75 389.26 597.363 388.283 599.395 388.283C601.855 388.283 603.086 389.689 603.086 392.502C603.086 393.166 602.441 396.584 601.152 402.756L590.781 454.846C590.039 458.479 589.668 461.037 589.668 462.521C589.668 463.342 589.863 464.357 590.254 465.568Z" stroke="#FF7B7B" stroke-width="4" mask="url(#path-11-outside-1)"/>
<path d="M690.742 416.525L687.754 431.584C686.504 437.834 685.879 442.268 685.879 444.885C685.879 450.08 690.918 452.678 700.996 452.678C710.996 452.678 719.805 450.9 727.422 447.346C725.664 453.205 722.754 456.818 718.691 458.186C716.23 459.006 711.953 459.846 705.859 460.705C699.766 461.604 695.078 462.053 691.797 462.053C679.023 462.053 672.637 457.814 672.637 449.338C672.637 447.072 673.262 442.717 674.512 436.271L678.438 416.525H677.559C673.613 416.525 669.785 417.385 666.074 419.104C668.223 414.885 669.98 412.189 671.348 411.018C672.754 409.846 674.961 409.26 677.969 409.26H679.902L685.645 380.373H683.945C676.719 380.373 670.02 382.678 663.848 387.287C665.801 381.037 668.477 377.014 671.875 375.217C674.531 373.85 682.715 373.166 696.426 373.166H713.887C724.902 373.166 733.848 372.072 740.723 369.885C737.637 374.768 734.883 377.736 732.461 378.791C730.078 379.846 724.883 380.373 716.875 380.373H697.949L692.148 409.26H704.277C712.754 409.26 719.512 408.186 724.551 406.037C721.895 410.998 719.531 413.986 717.461 415.002C715.391 416.018 710.527 416.525 702.871 416.525H690.742Z" stroke="#FF7B7B" stroke-width="4" mask="url(#path-11-outside-1)"/>
<path d="M774.473 419.338L768.73 448.342C767.988 452.014 767.617 454.416 767.617 455.549C767.617 456.643 767.852 457.814 768.32 459.064C764.336 461.057 760.742 462.053 757.539 462.053C755.469 462.053 754.434 461.232 754.434 459.592C754.434 458.732 754.844 456.291 755.664 452.268L762.168 419.338C759.785 408.674 756.172 398.869 751.328 389.924C746.523 380.979 741.621 375.002 736.621 371.994C740.723 369.143 743.828 367.717 745.938 367.717C753.438 367.717 762.227 383.049 772.305 413.713C780 406.955 786.738 399.943 792.52 392.678C798.34 385.412 801.25 380.334 801.25 377.443C801.25 375.842 800.605 374.436 799.316 373.225C802.637 371.74 805.254 370.998 807.168 370.998C810.371 370.998 811.973 372.697 811.973 376.096C811.973 379.885 808.105 386.232 800.371 395.139C792.637 404.045 784.004 412.111 774.473 419.338Z" stroke="#FF7B7B" stroke-width="4" mask="url(#path-11-outside-1)"/>
<path d="M840.332 436.271C839.746 436.389 838.711 436.604 837.227 436.916C836.641 437.033 835.996 437.092 835.293 437.092C831.973 437.092 830.312 435.549 830.312 432.463C830.312 430.705 830.664 428.127 831.367 424.729L832.539 418.811C835.391 404.592 836.816 391.447 836.816 379.377C836.816 378.166 836.66 376.799 836.348 375.275C839.824 373.869 842.129 373.166 843.262 373.166C847.129 373.166 849.062 375.236 849.062 379.377C849.062 383.049 847.52 391.35 844.434 404.279C843.027 410.178 841.953 415.021 841.211 418.811L840.391 422.854C839.805 425.783 839.512 428.576 839.512 431.232C839.512 432.951 839.785 434.631 840.332 436.271ZM824.629 445.822L828.848 445.002C831.66 444.455 833.711 444.182 835 444.182C838.398 444.182 840.098 445.959 840.098 449.514C840.098 450.92 839.902 452.619 839.512 454.611L838.75 458.596L836.055 459.064C832.227 459.768 829.941 460.119 829.199 460.119C826.426 460.119 825.039 458.674 825.039 455.783C825.039 455.002 825.117 454.24 825.273 453.498L825.566 451.975C825.723 451.311 825.801 450.607 825.801 449.865C825.801 448.264 825.41 446.916 824.629 445.822Z" stroke="#FF7B7B" stroke-width="4" mask="url(#path-11-outside-1)"/>
<path d="M886.387 436.271C885.801 436.389 884.766 436.604 883.281 436.916C882.695 437.033 882.051 437.092 881.348 437.092C878.027 437.092 876.367 435.549 876.367 432.463C876.367 430.705 876.719 428.127 877.422 424.729L878.594 418.811C881.445 404.592 882.871 391.447 882.871 379.377C882.871 378.166 882.715 376.799 882.402 375.275C885.879 373.869 888.184 373.166 889.316 373.166C893.184 373.166 895.117 375.236 895.117 379.377C895.117 383.049 893.574 391.35 890.488 404.279C889.082 410.178 888.008 415.021 887.266 418.811L886.445 422.854C885.859 425.783 885.566 428.576 885.566 431.232C885.566 432.951 885.84 434.631 886.387 436.271ZM870.684 445.822L874.902 445.002C877.715 444.455 879.766 444.182 881.055 444.182C884.453 444.182 886.152 445.959 886.152 449.514C886.152 450.92 885.957 452.619 885.566 454.611L884.805 458.596L882.109 459.064C878.281 459.768 875.996 460.119 875.254 460.119C872.48 460.119 871.094 458.674 871.094 455.783C871.094 455.002 871.172 454.24 871.328 453.498L871.621 451.975C871.777 451.311 871.855 450.607 871.855 449.865C871.855 448.264 871.465 446.916 870.684 445.822Z" stroke="#FF7B7B" stroke-width="4" mask="url(#path-11-outside-1)"/>
<path d="M932.441 436.271C931.855 436.389 930.82 436.604 929.336 436.916C928.75 437.033 928.105 437.092 927.402 437.092C924.082 437.092 922.422 435.549 922.422 432.463C922.422 430.705 922.773 428.127 923.477 424.729L924.648 418.811C927.5 404.592 928.926 391.447 928.926 379.377C928.926 378.166 928.77 376.799 928.457 375.275C931.934 373.869 934.238 373.166 935.371 373.166C939.238 373.166 941.172 375.236 941.172 379.377C941.172 383.049 939.629 391.35 936.543 404.279C935.137 410.178 934.062 415.021 933.32 418.811L932.5 422.854C931.914 425.783 931.621 428.576 931.621 431.232C931.621 432.951 931.895 434.631 932.441 436.271ZM916.738 445.822L920.957 445.002C923.77 444.455 925.82 444.182 927.109 444.182C930.508 444.182 932.207 445.959 932.207 449.514C932.207 450.92 932.012 452.619 931.621 454.611L930.859 458.596L928.164 459.064C924.336 459.768 922.051 460.119 921.309 460.119C918.535 460.119 917.148 458.674 917.148 455.783C917.148 455.002 917.227 454.24 917.383 453.498L917.676 451.975C917.832 451.311 917.91 450.607 917.91 449.865C917.91 448.264 917.52 446.916 916.738 445.822Z" stroke="#FF7B7B" stroke-width="4" mask="url(#path-11-outside-1)"/>
</g>
<defs>
<radialGradient id="paint0_radial" cx="0" cy="0" r="1" gradientUnits="userSpaceOnUse" gradientTransform="translate(565.828 356.243) rotate(90) scale(262.243 565.828)">
<stop stop-color="white"/>
<stop offset="1" stop-color="#FF6363" stop-opacity="0"/>
</radialGradient>
<clipPath id="clip0">
<rect width="1135.15" height="712.88" fill="white"/>
</clipPath>
</defs>
</svg>
