<svg width="1136" height="713" viewBox="0 0 1136 713" fill="none" xmlns="http://www.w3.org/2000/svg">
<g clip-path="url(#clip0)">
<g opacity="0.2">
<path opacity="0.2" d="M544.929 699.043C544.897 700.121 544.774 701.195 544.559 702.253C537.599 701.146 530.599 700.146 523.559 699.253C523.559 698.973 523.559 698.683 523.559 698.393C523.625 695.394 524.487 692.467 526.059 689.913C528.119 686.653 531.249 684.613 534.699 684.723C538.149 684.833 541.139 687.063 542.989 690.433C544.389 693.08 545.058 696.051 544.929 699.043V699.043Z" fill="#3F3D56"/>
<path opacity="0.2" d="M545.49 681.966C545.735 674.233 541.145 667.812 535.238 667.626C529.332 667.439 524.345 673.557 524.101 681.29C523.857 689.024 528.447 695.445 534.353 695.631C540.26 695.818 545.246 689.7 545.49 681.966Z" fill="#3F3D56"/>
<path opacity="0.2" d="M546.036 664.846C546.28 657.112 541.69 650.692 535.784 650.505C529.877 650.318 524.891 656.436 524.647 664.17C524.402 671.904 528.992 678.324 534.899 678.511C540.805 678.698 545.792 672.58 546.036 664.846Z" fill="#3F3D56"/>
<path opacity="0.2" d="M546.572 647.726C546.816 639.992 542.226 633.571 536.319 633.385C530.413 633.198 525.427 639.316 525.182 647.05C524.938 654.783 529.528 661.204 535.434 661.391C541.341 661.577 546.327 655.459 546.572 647.726Z" fill="#3F3D56"/>
<path opacity="0.2" d="M547.117 630.605C547.362 622.871 542.771 616.451 536.865 616.264C530.959 616.077 525.972 622.195 525.728 629.929C525.483 637.663 530.073 644.083 535.98 644.27C541.886 644.457 546.873 638.339 547.117 630.605Z" fill="#3F3D56"/>
<path opacity="0.2" d="M500.029 511.803C498.621 509.896 497.351 507.891 496.229 505.803L524.489 502.073L494.069 501.343C491.355 494.904 489.982 487.978 490.035 480.991C490.089 474.003 491.567 467.1 494.379 460.703L534.499 483.153L497.749 454.313C501.457 448.317 506.36 443.149 512.155 439.133C517.949 435.118 524.508 432.34 531.424 430.973C538.34 429.606 545.464 429.68 552.35 431.19C559.236 432.7 565.737 435.614 571.446 439.749C577.156 443.884 581.951 449.152 585.533 455.224C589.115 461.296 591.407 468.041 592.265 475.039C593.123 482.036 592.529 489.135 590.52 495.892C588.511 502.65 585.13 508.92 580.589 514.313C582.78 517.279 584.641 520.474 586.139 523.843L549.049 541.643L588.379 529.813C590.856 537.985 591.255 546.646 589.541 555.012C587.826 563.378 584.052 571.184 578.559 577.723C584.269 585.47 587.684 594.668 588.413 604.265C589.142 613.861 587.155 623.469 582.68 631.99C578.205 640.511 571.423 647.6 563.109 652.448C554.794 657.295 545.283 659.705 535.664 659.402C526.044 659.099 516.704 656.094 508.712 650.733C500.72 645.371 494.397 637.868 490.468 629.083C486.539 620.297 485.162 610.583 486.493 601.051C487.825 591.519 491.812 582.555 497.999 575.183C491.177 565.924 487.666 554.641 488.028 543.146C488.391 531.652 492.607 520.613 499.999 511.803H500.029Z" fill="#6C63FF"/>
<path opacity="0.1" d="M590.559 546.383C590.209 557.884 585.98 568.929 578.559 577.723C584.269 585.47 587.684 594.668 588.413 604.265C589.142 613.861 587.155 623.469 582.68 631.99C578.205 640.511 571.423 647.6 563.109 652.448C554.794 657.295 545.283 659.705 535.664 659.402C526.044 659.099 516.704 656.094 508.712 650.733C500.72 645.371 494.397 637.868 490.468 629.083C486.539 620.297 485.162 610.583 486.493 601.051C487.825 591.519 491.812 582.555 497.999 575.183C491.429 566.253 590.739 540.633 590.559 546.383Z" fill="black"/>
</g>
</g>
<defs>
<clipPath id="clip0">
<rect width="1135.15" height="712.88" fill="white"/>
</clipPath>
</defs>
</svg>
