<svg width="1136" height="713" viewBox="0 0 1136 713" fill="none" xmlns="http://www.w3.org/2000/svg">
<g clip-path="url(#clip0)">
<path opacity="0.1" d="M897.63 86.26C909.576 86.26 919.26 76.5759 919.26 64.63C919.26 52.6841 909.576 43 897.63 43C885.684 43 876 52.6841 876 64.63C876 76.5759 885.684 86.26 897.63 86.26Z" fill="#6C63FF"/>
</g>
<defs>
<clipPath id="clip0">
<rect width="1135.15" height="712.88" fill="white"/>
</clipPath>
</defs>
</svg>
